[WW_TuneCP5_13TeV-pythia8]
root://t3dcachedb.psi.ch//pnfs/psi.ch/cms/trivcat/store/user/koschwei/tth/ttH_AH_v4/WW_TuneCP5_13TeV-pythia8/ttH_AH_v4/181111_170329/0000/tree_38.root = 49142
root://t3dcachedb.psi.ch//pnfs/psi.ch/cms/trivcat/store/user/koschwei/tth/ttH_AH_v4/WW_TuneCP5_13TeV-pythia8/ttH_AH_v4/181111_170329/0000/tree_36.root = 49208
root://t3dcachedb.psi.ch//pnfs/psi.ch/cms/trivcat/store/user/koschwei/tth/ttH_AH_v4/WW_TuneCP5_13TeV-pythia8/ttH_AH_v4/181111_170329/0000/tree_37.root = 49208
root://t3dcachedb.psi.ch//pnfs/psi.ch/cms/trivcat/store/user/koschwei/tth/ttH_AH_v4/WW_TuneCP5_13TeV-pythia8/ttH_AH_v4/181111_170329/0000/tree_32.root = 49340
root://t3dcachedb.psi.ch//pnfs/psi.ch/cms/trivcat/store/user/koschwei/tth/ttH_AH_v4/WW_TuneCP5_13TeV-pythia8/ttH_AH_v4/181111_170329/0000/tree_33.root = 49208
root://t3dcachedb.psi.ch//pnfs/psi.ch/cms/trivcat/store/user/koschwei/tth/ttH_AH_v4/WW_TuneCP5_13TeV-pythia8/ttH_AH_v4/181111_170329/0000/tree_31.root = 49274
root://t3dcachedb.psi.ch//pnfs/psi.ch/cms/trivcat/store/user/koschwei/tth/ttH_AH_v4/WW_TuneCP5_13TeV-pythia8/ttH_AH_v4/181111_170329/0000/tree_30.root = 49010
root://t3dcachedb.psi.ch//pnfs/psi.ch/cms/trivcat/store/user/koschwei/tth/ttH_AH_v4/WW_TuneCP5_13TeV-pythia8/ttH_AH_v4/181111_170329/0000/tree_34.root = 49142
root://t3dcachedb.psi.ch//pnfs/psi.ch/cms/trivcat/store/user/koschwei/tth/ttH_AH_v4/WW_TuneCP5_13TeV-pythia8/ttH_AH_v4/181111_170329/0000/tree_35.root = 49076
root://t3dcachedb.psi.ch//pnfs/psi.ch/cms/trivcat/store/user/koschwei/tth/ttH_AH_v4/WW_TuneCP5_13TeV-pythia8/ttH_AH_v4/181111_170329/0000/tree_46.root = 49142
root://t3dcachedb.psi.ch//pnfs/psi.ch/cms/trivcat/store/user/koschwei/tth/ttH_AH_v4/WW_TuneCP5_13TeV-pythia8/ttH_AH_v4/181111_170329/0000/tree_41.root = 49142
root://t3dcachedb.psi.ch//pnfs/psi.ch/cms/trivcat/store/user/koschwei/tth/ttH_AH_v4/WW_TuneCP5_13TeV-pythia8/ttH_AH_v4/181111_170329/0000/tree_44.root = 49208
root://t3dcachedb.psi.ch//pnfs/psi.ch/cms/trivcat/store/user/koschwei/tth/ttH_AH_v4/WW_TuneCP5_13TeV-pythia8/ttH_AH_v4/181111_170329/0000/tree_43.root = 49208
root://t3dcachedb.psi.ch//pnfs/psi.ch/cms/trivcat/store/user/koschwei/tth/ttH_AH_v4/WW_TuneCP5_13TeV-pythia8/ttH_AH_v4/181111_170329/0000/tree_47.root = 49274
root://t3dcachedb.psi.ch//pnfs/psi.ch/cms/trivcat/store/user/koschwei/tth/ttH_AH_v4/WW_TuneCP5_13TeV-pythia8/ttH_AH_v4/181111_170329/0000/tree_48.root = 49274
root://t3dcachedb.psi.ch//pnfs/psi.ch/cms/trivcat/store/user/koschwei/tth/ttH_AH_v4/WW_TuneCP5_13TeV-pythia8/ttH_AH_v4/181111_170329/0000/tree_45.root = 49208
root://t3dcachedb.psi.ch//pnfs/psi.ch/cms/trivcat/store/user/koschwei/tth/ttH_AH_v4/WW_TuneCP5_13TeV-pythia8/ttH_AH_v4/181111_170329/0000/tree_50.root = 49142
root://t3dcachedb.psi.ch//pnfs/psi.ch/cms/trivcat/store/user/koschwei/tth/ttH_AH_v4/WW_TuneCP5_13TeV-pythia8/ttH_AH_v4/181111_170329/0000/tree_40.root = 49142
root://t3dcachedb.psi.ch//pnfs/psi.ch/cms/trivcat/store/user/koschwei/tth/ttH_AH_v4/WW_TuneCP5_13TeV-pythia8/ttH_AH_v4/181111_170329/0000/tree_39.root = 49340
root://t3dcachedb.psi.ch//pnfs/psi.ch/cms/trivcat/store/user/koschwei/tth/ttH_AH_v4/WW_TuneCP5_13TeV-pythia8/ttH_AH_v4/181111_170329/0000/tree_49.root = 49274
root://t3dcachedb.psi.ch//pnfs/psi.ch/cms/trivcat/store/user/koschwei/tth/ttH_AH_v4/WW_TuneCP5_13TeV-pythia8/ttH_AH_v4/181111_170329/0000/tree_42.root = 49076
root://t3dcachedb.psi.ch//pnfs/psi.ch/cms/trivcat/store/user/koschwei/tth/ttH_AH_v4/WW_TuneCP5_13TeV-pythia8/ttH_AH_v4/181111_170329/0000/tree_85.root = 18508
root://t3dcachedb.psi.ch//pnfs/psi.ch/cms/trivcat/store/user/koschwei/tth/ttH_AH_v4/WW_TuneCP5_13TeV-pythia8/ttH_AH_v4/181111_170329/0000/tree_131.root = 900
root://t3dcachedb.psi.ch//pnfs/psi.ch/cms/trivcat/store/user/koschwei/tth/ttH_AH_v4/WW_TuneCP5_13TeV-pythia8/ttH_AH_v4/181111_170329/0000/tree_126.root = 900
root://t3dcachedb.psi.ch//pnfs/psi.ch/cms/trivcat/store/user/koschwei/tth/ttH_AH_v4/WW_TuneCP5_13TeV-pythia8/ttH_AH_v4/181111_170329/0000/tree_89.root = 49340
root://t3dcachedb.psi.ch//pnfs/psi.ch/cms/trivcat/store/user/koschwei/tth/ttH_AH_v4/WW_TuneCP5_13TeV-pythia8/ttH_AH_v4/181111_170329/0000/tree_130.root = 16999
root://t3dcachedb.psi.ch//pnfs/psi.ch/cms/trivcat/store/user/koschwei/tth/ttH_AH_v4/WW_TuneCP5_13TeV-pythia8/ttH_AH_v4/181111_170329/0000/tree_88.root = 49208
root://t3dcachedb.psi.ch//pnfs/psi.ch/cms/trivcat/store/user/koschwei/tth/ttH_AH_v4/WW_TuneCP5_13TeV-pythia8/ttH_AH_v4/181111_170329/0000/tree_98.root = 49274
root://t3dcachedb.psi.ch//pnfs/psi.ch/cms/trivcat/store/user/koschwei/tth/ttH_AH_v4/WW_TuneCP5_13TeV-pythia8/ttH_AH_v4/181111_170329/0000/tree_91.root = 49142
root://t3dcachedb.psi.ch//pnfs/psi.ch/cms/trivcat/store/user/koschwei/tth/ttH_AH_v4/WW_TuneCP5_13TeV-pythia8/ttH_AH_v4/181111_170329/0000/tree_80.root = 49274
root://t3dcachedb.psi.ch//pnfs/psi.ch/cms/trivcat/store/user/koschwei/tth/ttH_AH_v4/WW_TuneCP5_13TeV-pythia8/ttH_AH_v4/181111_170329/0000/tree_90.root = 49142
root://t3dcachedb.psi.ch//pnfs/psi.ch/cms/trivcat/store/user/koschwei/tth/ttH_AH_v4/WW_TuneCP5_13TeV-pythia8/ttH_AH_v4/181111_170329/0000/tree_92.root = 48452
root://t3dcachedb.psi.ch//pnfs/psi.ch/cms/trivcat/store/user/koschwei/tth/ttH_AH_v4/WW_TuneCP5_13TeV-pythia8/ttH_AH_v4/181111_170329/0000/tree_97.root = 49142
root://t3dcachedb.psi.ch//pnfs/psi.ch/cms/trivcat/store/user/koschwei/tth/ttH_AH_v4/WW_TuneCP5_13TeV-pythia8/ttH_AH_v4/181111_170329/0000/tree_81.root = 49340
root://t3dcachedb.psi.ch//pnfs/psi.ch/cms/trivcat/store/user/koschwei/tth/ttH_AH_v4/WW_TuneCP5_13TeV-pythia8/ttH_AH_v4/181111_170329/0000/tree_84.root = 49076
root://t3dcachedb.psi.ch//pnfs/psi.ch/cms/trivcat/store/user/koschwei/tth/ttH_AH_v4/WW_TuneCP5_13TeV-pythia8/ttH_AH_v4/181111_170329/0000/tree_86.root = 49208
root://t3dcachedb.psi.ch//pnfs/psi.ch/cms/trivcat/store/user/koschwei/tth/ttH_AH_v4/WW_TuneCP5_13TeV-pythia8/ttH_AH_v4/181111_170329/0000/tree_114.root = 49142
root://t3dcachedb.psi.ch//pnfs/psi.ch/cms/trivcat/store/user/koschwei/tth/ttH_AH_v4/WW_TuneCP5_13TeV-pythia8/ttH_AH_v4/181111_170329/0000/tree_99.root = 49208
root://t3dcachedb.psi.ch//pnfs/psi.ch/cms/trivcat/store/user/koschwei/tth/ttH_AH_v4/WW_TuneCP5_13TeV-pythia8/ttH_AH_v4/181111_170329/0000/tree_83.root = 49274
root://t3dcachedb.psi.ch//pnfs/psi.ch/cms/trivcat/store/user/koschwei/tth/ttH_AH_v4/WW_TuneCP5_13TeV-pythia8/ttH_AH_v4/181111_170329/0000/tree_113.root = 49142
root://t3dcachedb.psi.ch//pnfs/psi.ch/cms/trivcat/store/user/koschwei/tth/ttH_AH_v4/WW_TuneCP5_13TeV-pythia8/ttH_AH_v4/181111_170329/0000/tree_94.root = 49010
root://t3dcachedb.psi.ch//pnfs/psi.ch/cms/trivcat/store/user/koschwei/tth/ttH_AH_v4/WW_TuneCP5_13TeV-pythia8/ttH_AH_v4/181111_170329/0000/tree_122.root = 49208
root://t3dcachedb.psi.ch//pnfs/psi.ch/cms/trivcat/store/user/koschwei/tth/ttH_AH_v4/WW_TuneCP5_13TeV-pythia8/ttH_AH_v4/181111_170329/0000/tree_124.root = 39795
root://t3dcachedb.psi.ch//pnfs/psi.ch/cms/trivcat/store/user/koschwei/tth/ttH_AH_v4/WW_TuneCP5_13TeV-pythia8/ttH_AH_v4/181111_170329/0000/tree_120.root = 49010
root://t3dcachedb.psi.ch//pnfs/psi.ch/cms/trivcat/store/user/koschwei/tth/ttH_AH_v4/WW_TuneCP5_13TeV-pythia8/ttH_AH_v4/181111_170329/0000/tree_123.root = 49208
root://t3dcachedb.psi.ch//pnfs/psi.ch/cms/trivcat/store/user/koschwei/tth/ttH_AH_v4/WW_TuneCP5_13TeV-pythia8/ttH_AH_v4/181111_170329/0000/tree_129.root = 49208
root://t3dcachedb.psi.ch//pnfs/psi.ch/cms/trivcat/store/user/koschwei/tth/ttH_AH_v4/WW_TuneCP5_13TeV-pythia8/ttH_AH_v4/181111_170329/0000/tree_137.root = 49076
root://t3dcachedb.psi.ch//pnfs/psi.ch/cms/trivcat/store/user/koschwei/tth/ttH_AH_v4/WW_TuneCP5_13TeV-pythia8/ttH_AH_v4/181111_170329/0000/tree_132.root = 49076
root://t3dcachedb.psi.ch//pnfs/psi.ch/cms/trivcat/store/user/koschwei/tth/ttH_AH_v4/WW_TuneCP5_13TeV-pythia8/ttH_AH_v4/181111_170329/0000/tree_127.root = 49208
root://t3dcachedb.psi.ch//pnfs/psi.ch/cms/trivcat/store/user/koschwei/tth/ttH_AH_v4/WW_TuneCP5_13TeV-pythia8/ttH_AH_v4/181111_170329/0000/tree_118.root = 49208
root://t3dcachedb.psi.ch//pnfs/psi.ch/cms/trivcat/store/user/koschwei/tth/ttH_AH_v4/WW_TuneCP5_13TeV-pythia8/ttH_AH_v4/181111_170329/0000/tree_134.root = 49208
root://t3dcachedb.psi.ch//pnfs/psi.ch/cms/trivcat/store/user/koschwei/tth/ttH_AH_v4/WW_TuneCP5_13TeV-pythia8/ttH_AH_v4/181111_170329/0000/tree_93.root = 49208
root://t3dcachedb.psi.ch//pnfs/psi.ch/cms/trivcat/store/user/koschwei/tth/ttH_AH_v4/WW_TuneCP5_13TeV-pythia8/ttH_AH_v4/181111_170329/0000/tree_128.root = 49076
root://t3dcachedb.psi.ch//pnfs/psi.ch/cms/trivcat/store/user/koschwei/tth/ttH_AH_v4/WW_TuneCP5_13TeV-pythia8/ttH_AH_v4/181111_170329/0000/tree_121.root = 49274
root://t3dcachedb.psi.ch//pnfs/psi.ch/cms/trivcat/store/user/koschwei/tth/ttH_AH_v4/WW_TuneCP5_13TeV-pythia8/ttH_AH_v4/181111_170329/0000/tree_116.root = 49208
root://t3dcachedb.psi.ch//pnfs/psi.ch/cms/trivcat/store/user/koschwei/tth/ttH_AH_v4/WW_TuneCP5_13TeV-pythia8/ttH_AH_v4/181111_170329/0000/tree_133.root = 49010
root://t3dcachedb.psi.ch//pnfs/psi.ch/cms/trivcat/store/user/koschwei/tth/ttH_AH_v4/WW_TuneCP5_13TeV-pythia8/ttH_AH_v4/181111_170329/0000/tree_82.root = 49010
root://t3dcachedb.psi.ch//pnfs/psi.ch/cms/trivcat/store/user/koschwei/tth/ttH_AH_v4/WW_TuneCP5_13TeV-pythia8/ttH_AH_v4/181111_170329/0000/tree_95.root = 49274
root://t3dcachedb.psi.ch//pnfs/psi.ch/cms/trivcat/store/user/koschwei/tth/ttH_AH_v4/WW_TuneCP5_13TeV-pythia8/ttH_AH_v4/181111_170329/0000/tree_139.root = 49406
root://t3dcachedb.psi.ch//pnfs/psi.ch/cms/trivcat/store/user/koschwei/tth/ttH_AH_v4/WW_TuneCP5_13TeV-pythia8/ttH_AH_v4/181111_170329/0000/tree_138.root = 49010
root://t3dcachedb.psi.ch//pnfs/psi.ch/cms/trivcat/store/user/koschwei/tth/ttH_AH_v4/WW_TuneCP5_13TeV-pythia8/ttH_AH_v4/181111_170329/0000/tree_96.root = 49142
root://t3dcachedb.psi.ch//pnfs/psi.ch/cms/trivcat/store/user/koschwei/tth/ttH_AH_v4/WW_TuneCP5_13TeV-pythia8/ttH_AH_v4/181111_170329/0000/tree_135.root = 49208
root://t3dcachedb.psi.ch//pnfs/psi.ch/cms/trivcat/store/user/koschwei/tth/ttH_AH_v4/WW_TuneCP5_13TeV-pythia8/ttH_AH_v4/181111_170329/0000/tree_136.root = 49208
root://t3dcachedb.psi.ch//pnfs/psi.ch/cms/trivcat/store/user/koschwei/tth/ttH_AH_v4/WW_TuneCP5_13TeV-pythia8/ttH_AH_v4/181111_170329/0000/tree_125.root = 32572
root://t3dcachedb.psi.ch//pnfs/psi.ch/cms/trivcat/store/user/koschwei/tth/ttH_AH_v4/WW_TuneCP5_13TeV-pythia8/ttH_AH_v4/181111_170329/0000/tree_119.root = 49208
root://t3dcachedb.psi.ch//pnfs/psi.ch/cms/trivcat/store/user/koschwei/tth/ttH_AH_v4/WW_TuneCP5_13TeV-pythia8/ttH_AH_v4/181111_170329/0000/tree_115.root = 49208
root://t3dcachedb.psi.ch//pnfs/psi.ch/cms/trivcat/store/user/koschwei/tth/ttH_AH_v4/WW_TuneCP5_13TeV-pythia8/ttH_AH_v4/181111_170329/0000/tree_117.root = 49208
root://t3dcachedb.psi.ch//pnfs/psi.ch/cms/trivcat/store/user/koschwei/tth/ttH_AH_v4/WW_TuneCP5_13TeV-pythia8/ttH_AH_v4/181111_170329/0000/tree_51.root = 49142
root://t3dcachedb.psi.ch//pnfs/psi.ch/cms/trivcat/store/user/koschwei/tth/ttH_AH_v4/WW_TuneCP5_13TeV-pythia8/ttH_AH_v4/181111_170329/0000/tree_52.root = 49010
root://t3dcachedb.psi.ch//pnfs/psi.ch/cms/trivcat/store/user/koschwei/tth/ttH_AH_v4/WW_TuneCP5_13TeV-pythia8/ttH_AH_v4/181111_170329/0000/tree_53.root = 49406
root://t3dcachedb.psi.ch//pnfs/psi.ch/cms/trivcat/store/user/koschwei/tth/ttH_AH_v4/WW_TuneCP5_13TeV-pythia8/ttH_AH_v4/181111_170329/0000/tree_54.root = 49208
root://t3dcachedb.psi.ch//pnfs/psi.ch/cms/trivcat/store/user/koschwei/tth/ttH_AH_v4/WW_TuneCP5_13TeV-pythia8/ttH_AH_v4/181111_170329/0000/tree_55.root = 49076
root://t3dcachedb.psi.ch//pnfs/psi.ch/cms/trivcat/store/user/koschwei/tth/ttH_AH_v4/WW_TuneCP5_13TeV-pythia8/ttH_AH_v4/181111_170329/0000/tree_56.root = 49208
root://t3dcachedb.psi.ch//pnfs/psi.ch/cms/trivcat/store/user/koschwei/tth/ttH_AH_v4/WW_TuneCP5_13TeV-pythia8/ttH_AH_v4/181111_170329/0000/tree_57.root = 49142
root://t3dcachedb.psi.ch//pnfs/psi.ch/cms/trivcat/store/user/koschwei/tth/ttH_AH_v4/WW_TuneCP5_13TeV-pythia8/ttH_AH_v4/181111_170329/0000/tree_58.root = 49208
root://t3dcachedb.psi.ch//pnfs/psi.ch/cms/trivcat/store/user/koschwei/tth/ttH_AH_v4/WW_TuneCP5_13TeV-pythia8/ttH_AH_v4/181111_170329/0000/tree_59.root = 49076
root://t3dcachedb.psi.ch//pnfs/psi.ch/cms/trivcat/store/user/koschwei/tth/ttH_AH_v4/WW_TuneCP5_13TeV-pythia8/ttH_AH_v4/181111_170329/0000/tree_140.root = 49076
root://t3dcachedb.psi.ch//pnfs/psi.ch/cms/trivcat/store/user/koschwei/tth/ttH_AH_v4/WW_TuneCP5_13TeV-pythia8/ttH_AH_v4/181111_170329/0000/tree_141.root = 49208
root://t3dcachedb.psi.ch//pnfs/psi.ch/cms/trivcat/store/user/koschwei/tth/ttH_AH_v4/WW_TuneCP5_13TeV-pythia8/ttH_AH_v4/181111_170329/0000/tree_142.root = 49010
root://t3dcachedb.psi.ch//pnfs/psi.ch/cms/trivcat/store/user/koschwei/tth/ttH_AH_v4/WW_TuneCP5_13TeV-pythia8/ttH_AH_v4/181111_170329/0000/tree_143.root = 49142
root://t3dcachedb.psi.ch//pnfs/psi.ch/cms/trivcat/store/user/koschwei/tth/ttH_AH_v4/WW_TuneCP5_13TeV-pythia8/ttH_AH_v4/181111_170329/0000/tree_144.root = 49208
root://t3dcachedb.psi.ch//pnfs/psi.ch/cms/trivcat/store/user/koschwei/tth/ttH_AH_v4/WW_TuneCP5_13TeV-pythia8/ttH_AH_v4/181111_170329/0000/tree_145.root = 49142
root://t3dcachedb.psi.ch//pnfs/psi.ch/cms/trivcat/store/user/koschwei/tth/ttH_AH_v4/WW_TuneCP5_13TeV-pythia8/ttH_AH_v4/181111_170329/0000/tree_146.root = 49142
root://t3dcachedb.psi.ch//pnfs/psi.ch/cms/trivcat/store/user/koschwei/tth/ttH_AH_v4/WW_TuneCP5_13TeV-pythia8/ttH_AH_v4/181111_170329/0000/tree_147.root = 49010
root://t3dcachedb.psi.ch//pnfs/psi.ch/cms/trivcat/store/user/koschwei/tth/ttH_AH_v4/WW_TuneCP5_13TeV-pythia8/ttH_AH_v4/181111_170329/0000/tree_148.root = 49142
root://t3dcachedb.psi.ch//pnfs/psi.ch/cms/trivcat/store/user/koschwei/tth/ttH_AH_v4/WW_TuneCP5_13TeV-pythia8/ttH_AH_v4/181111_170329/0000/tree_149.root = 49208
root://t3dcachedb.psi.ch//pnfs/psi.ch/cms/trivcat/store/user/koschwei/tth/ttH_AH_v4/WW_TuneCP5_13TeV-pythia8/ttH_AH_v4/181111_170329/0000/tree_10.root = 49208
root://t3dcachedb.psi.ch//pnfs/psi.ch/cms/trivcat/store/user/koschwei/tth/ttH_AH_v4/WW_TuneCP5_13TeV-pythia8/ttH_AH_v4/181111_170329/0000/tree_11.root = 49010
root://t3dcachedb.psi.ch//pnfs/psi.ch/cms/trivcat/store/user/koschwei/tth/ttH_AH_v4/WW_TuneCP5_13TeV-pythia8/ttH_AH_v4/181111_170329/0000/tree_12.root = 49142
root://t3dcachedb.psi.ch//pnfs/psi.ch/cms/trivcat/store/user/koschwei/tth/ttH_AH_v4/WW_TuneCP5_13TeV-pythia8/ttH_AH_v4/181111_170329/0000/tree_13.root = 49274
root://t3dcachedb.psi.ch//pnfs/psi.ch/cms/trivcat/store/user/koschwei/tth/ttH_AH_v4/WW_TuneCP5_13TeV-pythia8/ttH_AH_v4/181111_170329/0000/tree_14.root = 49208
root://t3dcachedb.psi.ch//pnfs/psi.ch/cms/trivcat/store/user/koschwei/tth/ttH_AH_v4/WW_TuneCP5_13TeV-pythia8/ttH_AH_v4/181111_170329/0000/tree_1.root = 49274
root://t3dcachedb.psi.ch//pnfs/psi.ch/cms/trivcat/store/user/koschwei/tth/ttH_AH_v4/WW_TuneCP5_13TeV-pythia8/ttH_AH_v4/181111_170329/0000/tree_60.root = 12482
root://t3dcachedb.psi.ch//pnfs/psi.ch/cms/trivcat/store/user/koschwei/tth/ttH_AH_v4/WW_TuneCP5_13TeV-pythia8/ttH_AH_v4/181111_170329/0000/tree_15.root = 49274
root://t3dcachedb.psi.ch//pnfs/psi.ch/cms/trivcat/store/user/koschwei/tth/ttH_AH_v4/WW_TuneCP5_13TeV-pythia8/ttH_AH_v4/181111_170329/0000/tree_2.root = 49010
root://t3dcachedb.psi.ch//pnfs/psi.ch/cms/trivcat/store/user/koschwei/tth/ttH_AH_v4/WW_TuneCP5_13TeV-pythia8/ttH_AH_v4/181111_170329/0000/tree_61.root = 49208
root://t3dcachedb.psi.ch//pnfs/psi.ch/cms/trivcat/store/user/koschwei/tth/ttH_AH_v4/WW_TuneCP5_13TeV-pythia8/ttH_AH_v4/181111_170329/0000/tree_16.root = 49076
root://t3dcachedb.psi.ch//pnfs/psi.ch/cms/trivcat/store/user/koschwei/tth/ttH_AH_v4/WW_TuneCP5_13TeV-pythia8/ttH_AH_v4/181111_170329/0000/tree_3.root = 49274
root://t3dcachedb.psi.ch//pnfs/psi.ch/cms/trivcat/store/user/koschwei/tth/ttH_AH_v4/WW_TuneCP5_13TeV-pythia8/ttH_AH_v4/181111_170329/0000/tree_62.root = 49208
root://t3dcachedb.psi.ch//pnfs/psi.ch/cms/trivcat/store/user/koschwei/tth/ttH_AH_v4/WW_TuneCP5_13TeV-pythia8/ttH_AH_v4/181111_170329/0000/tree_17.root = 49208
root://t3dcachedb.psi.ch//pnfs/psi.ch/cms/trivcat/store/user/koschwei/tth/ttH_AH_v4/WW_TuneCP5_13TeV-pythia8/ttH_AH_v4/181111_170329/0000/tree_4.root = 49208
root://t3dcachedb.psi.ch//pnfs/psi.ch/cms/trivcat/store/user/koschwei/tth/ttH_AH_v4/WW_TuneCP5_13TeV-pythia8/ttH_AH_v4/181111_170329/0000/tree_63.root = 49208
root://t3dcachedb.psi.ch//pnfs/psi.ch/cms/trivcat/store/user/koschwei/tth/ttH_AH_v4/WW_TuneCP5_13TeV-pythia8/ttH_AH_v4/181111_170329/0000/tree_18.root = 49142
root://t3dcachedb.psi.ch//pnfs/psi.ch/cms/trivcat/store/user/koschwei/tth/ttH_AH_v4/WW_TuneCP5_13TeV-pythia8/ttH_AH_v4/181111_170329/0000/tree_5.root = 49208
root://t3dcachedb.psi.ch//pnfs/psi.ch/cms/trivcat/store/user/koschwei/tth/ttH_AH_v4/WW_TuneCP5_13TeV-pythia8/ttH_AH_v4/181111_170329/0000/tree_64.root = 49076
root://t3dcachedb.psi.ch//pnfs/psi.ch/cms/trivcat/store/user/koschwei/tth/ttH_AH_v4/WW_TuneCP5_13TeV-pythia8/ttH_AH_v4/181111_170329/0000/tree_19.root = 49142
root://t3dcachedb.psi.ch//pnfs/psi.ch/cms/trivcat/store/user/koschwei/tth/ttH_AH_v4/WW_TuneCP5_13TeV-pythia8/ttH_AH_v4/181111_170329/0000/tree_6.root = 49208
root://t3dcachedb.psi.ch//pnfs/psi.ch/cms/trivcat/store/user/koschwei/tth/ttH_AH_v4/WW_TuneCP5_13TeV-pythia8/ttH_AH_v4/181111_170329/0000/tree_65.root = 49142
root://t3dcachedb.psi.ch//pnfs/psi.ch/cms/trivcat/store/user/koschwei/tth/ttH_AH_v4/WW_TuneCP5_13TeV-pythia8/ttH_AH_v4/181111_170329/0000/tree_7.root = 49274
root://t3dcachedb.psi.ch//pnfs/psi.ch/cms/trivcat/store/user/koschwei/tth/ttH_AH_v4/WW_TuneCP5_13TeV-pythia8/ttH_AH_v4/181111_170329/0000/tree_66.root = 49142
root://t3dcachedb.psi.ch//pnfs/psi.ch/cms/trivcat/store/user/koschwei/tth/ttH_AH_v4/WW_TuneCP5_13TeV-pythia8/ttH_AH_v4/181111_170329/0000/tree_8.root = 49142
root://t3dcachedb.psi.ch//pnfs/psi.ch/cms/trivcat/store/user/koschwei/tth/ttH_AH_v4/WW_TuneCP5_13TeV-pythia8/ttH_AH_v4/181111_170329/0000/tree_67.root = 49274
root://t3dcachedb.psi.ch//pnfs/psi.ch/cms/trivcat/store/user/koschwei/tth/ttH_AH_v4/WW_TuneCP5_13TeV-pythia8/ttH_AH_v4/181111_170329/0000/tree_9.root = 49142
root://t3dcachedb.psi.ch//pnfs/psi.ch/cms/trivcat/store/user/koschwei/tth/ttH_AH_v4/WW_TuneCP5_13TeV-pythia8/ttH_AH_v4/181111_170329/0000/tree_68.root = 49076
root://t3dcachedb.psi.ch//pnfs/psi.ch/cms/trivcat/store/user/koschwei/tth/ttH_AH_v4/WW_TuneCP5_13TeV-pythia8/ttH_AH_v4/181111_170329/0000/tree_69.root = 49274
root://t3dcachedb.psi.ch//pnfs/psi.ch/cms/trivcat/store/user/koschwei/tth/ttH_AH_v4/WW_TuneCP5_13TeV-pythia8/ttH_AH_v4/181111_170329/0000/tree_100.root = 49142
root://t3dcachedb.psi.ch//pnfs/psi.ch/cms/trivcat/store/user/koschwei/tth/ttH_AH_v4/WW_TuneCP5_13TeV-pythia8/ttH_AH_v4/181111_170329/0000/tree_101.root = 49208
root://t3dcachedb.psi.ch//pnfs/psi.ch/cms/trivcat/store/user/koschwei/tth/ttH_AH_v4/WW_TuneCP5_13TeV-pythia8/ttH_AH_v4/181111_170329/0000/tree_102.root = 49208
root://t3dcachedb.psi.ch//pnfs/psi.ch/cms/trivcat/store/user/koschwei/tth/ttH_AH_v4/WW_TuneCP5_13TeV-pythia8/ttH_AH_v4/181111_170329/0000/tree_103.root = 49076
root://t3dcachedb.psi.ch//pnfs/psi.ch/cms/trivcat/store/user/koschwei/tth/ttH_AH_v4/WW_TuneCP5_13TeV-pythia8/ttH_AH_v4/181111_170329/0000/tree_104.root = 49142
root://t3dcachedb.psi.ch//pnfs/psi.ch/cms/trivcat/store/user/koschwei/tth/ttH_AH_v4/WW_TuneCP5_13TeV-pythia8/ttH_AH_v4/181111_170329/0000/tree_150.root = 49142
root://t3dcachedb.psi.ch//pnfs/psi.ch/cms/trivcat/store/user/koschwei/tth/ttH_AH_v4/WW_TuneCP5_13TeV-pythia8/ttH_AH_v4/181111_170329/0000/tree_105.root = 49076
root://t3dcachedb.psi.ch//pnfs/psi.ch/cms/trivcat/store/user/koschwei/tth/ttH_AH_v4/WW_TuneCP5_13TeV-pythia8/ttH_AH_v4/181111_170329/0000/tree_151.root = 49274
root://t3dcachedb.psi.ch//pnfs/psi.ch/cms/trivcat/store/user/koschwei/tth/ttH_AH_v4/WW_TuneCP5_13TeV-pythia8/ttH_AH_v4/181111_170329/0000/tree_106.root = 17823
root://t3dcachedb.psi.ch//pnfs/psi.ch/cms/trivcat/store/user/koschwei/tth/ttH_AH_v4/WW_TuneCP5_13TeV-pythia8/ttH_AH_v4/181111_170329/0000/tree_152.root = 49340
root://t3dcachedb.psi.ch//pnfs/psi.ch/cms/trivcat/store/user/koschwei/tth/ttH_AH_v4/WW_TuneCP5_13TeV-pythia8/ttH_AH_v4/181111_170329/0000/tree_107.root = 49208
root://t3dcachedb.psi.ch//pnfs/psi.ch/cms/trivcat/store/user/koschwei/tth/ttH_AH_v4/WW_TuneCP5_13TeV-pythia8/ttH_AH_v4/181111_170329/0000/tree_153.root = 34741
root://t3dcachedb.psi.ch//pnfs/psi.ch/cms/trivcat/store/user/koschwei/tth/ttH_AH_v4/WW_TuneCP5_13TeV-pythia8/ttH_AH_v4/181111_170329/0000/tree_108.root = 49274
root://t3dcachedb.psi.ch//pnfs/psi.ch/cms/trivcat/store/user/koschwei/tth/ttH_AH_v4/WW_TuneCP5_13TeV-pythia8/ttH_AH_v4/181111_170329/0000/tree_154.root = 49142
root://t3dcachedb.psi.ch//pnfs/psi.ch/cms/trivcat/store/user/koschwei/tth/ttH_AH_v4/WW_TuneCP5_13TeV-pythia8/ttH_AH_v4/181111_170329/0000/tree_109.root = 49076
root://t3dcachedb.psi.ch//pnfs/psi.ch/cms/trivcat/store/user/koschwei/tth/ttH_AH_v4/WW_TuneCP5_13TeV-pythia8/ttH_AH_v4/181111_170329/0000/tree_155.root = 49142
root://t3dcachedb.psi.ch//pnfs/psi.ch/cms/trivcat/store/user/koschwei/tth/ttH_AH_v4/WW_TuneCP5_13TeV-pythia8/ttH_AH_v4/181111_170329/0000/tree_156.root = 49142
root://t3dcachedb.psi.ch//pnfs/psi.ch/cms/trivcat/store/user/koschwei/tth/ttH_AH_v4/WW_TuneCP5_13TeV-pythia8/ttH_AH_v4/181111_170329/0000/tree_157.root = 49142
root://t3dcachedb.psi.ch//pnfs/psi.ch/cms/trivcat/store/user/koschwei/tth/ttH_AH_v4/WW_TuneCP5_13TeV-pythia8/ttH_AH_v4/181111_170329/0000/tree_158.root = 1000
root://t3dcachedb.psi.ch//pnfs/psi.ch/cms/trivcat/store/user/koschwei/tth/ttH_AH_v4/WW_TuneCP5_13TeV-pythia8/ttH_AH_v4/181111_170329/0000/tree_159.root = 22472
root://t3dcachedb.psi.ch//pnfs/psi.ch/cms/trivcat/store/user/koschwei/tth/ttH_AH_v4/WW_TuneCP5_13TeV-pythia8/ttH_AH_v4/181111_170329/0000/tree_20.root = 49142
root://t3dcachedb.psi.ch//pnfs/psi.ch/cms/trivcat/store/user/koschwei/tth/ttH_AH_v4/WW_TuneCP5_13TeV-pythia8/ttH_AH_v4/181111_170329/0000/tree_21.root = 49274
root://t3dcachedb.psi.ch//pnfs/psi.ch/cms/trivcat/store/user/koschwei/tth/ttH_AH_v4/WW_TuneCP5_13TeV-pythia8/ttH_AH_v4/181111_170329/0000/tree_22.root = 49010
root://t3dcachedb.psi.ch//pnfs/psi.ch/cms/trivcat/store/user/koschwei/tth/ttH_AH_v4/WW_TuneCP5_13TeV-pythia8/ttH_AH_v4/181111_170329/0000/tree_23.root = 49208
root://t3dcachedb.psi.ch//pnfs/psi.ch/cms/trivcat/store/user/koschwei/tth/ttH_AH_v4/WW_TuneCP5_13TeV-pythia8/ttH_AH_v4/181111_170329/0000/tree_24.root = 49208
root://t3dcachedb.psi.ch//pnfs/psi.ch/cms/trivcat/store/user/koschwei/tth/ttH_AH_v4/WW_TuneCP5_13TeV-pythia8/ttH_AH_v4/181111_170329/0000/tree_70.root = 49208
root://t3dcachedb.psi.ch//pnfs/psi.ch/cms/trivcat/store/user/koschwei/tth/ttH_AH_v4/WW_TuneCP5_13TeV-pythia8/ttH_AH_v4/181111_170329/0000/tree_25.root = 49340
root://t3dcachedb.psi.ch//pnfs/psi.ch/cms/trivcat/store/user/koschwei/tth/ttH_AH_v4/WW_TuneCP5_13TeV-pythia8/ttH_AH_v4/181111_170329/0000/tree_71.root = 49142
root://t3dcachedb.psi.ch//pnfs/psi.ch/cms/trivcat/store/user/koschwei/tth/ttH_AH_v4/WW_TuneCP5_13TeV-pythia8/ttH_AH_v4/181111_170329/0000/tree_26.root = 28846
root://t3dcachedb.psi.ch//pnfs/psi.ch/cms/trivcat/store/user/koschwei/tth/ttH_AH_v4/WW_TuneCP5_13TeV-pythia8/ttH_AH_v4/181111_170329/0000/tree_72.root = 49142
root://t3dcachedb.psi.ch//pnfs/psi.ch/cms/trivcat/store/user/koschwei/tth/ttH_AH_v4/WW_TuneCP5_13TeV-pythia8/ttH_AH_v4/181111_170329/0000/tree_27.root = 43274
root://t3dcachedb.psi.ch//pnfs/psi.ch/cms/trivcat/store/user/koschwei/tth/ttH_AH_v4/WW_TuneCP5_13TeV-pythia8/ttH_AH_v4/181111_170329/0000/tree_73.root = 49208
root://t3dcachedb.psi.ch//pnfs/psi.ch/cms/trivcat/store/user/koschwei/tth/ttH_AH_v4/WW_TuneCP5_13TeV-pythia8/ttH_AH_v4/181111_170329/0000/tree_28.root = 15896
root://t3dcachedb.psi.ch//pnfs/psi.ch/cms/trivcat/store/user/koschwei/tth/ttH_AH_v4/WW_TuneCP5_13TeV-pythia8/ttH_AH_v4/181111_170329/0000/tree_74.root = 49076
root://t3dcachedb.psi.ch//pnfs/psi.ch/cms/trivcat/store/user/koschwei/tth/ttH_AH_v4/WW_TuneCP5_13TeV-pythia8/ttH_AH_v4/181111_170329/0000/tree_29.root = 49208
root://t3dcachedb.psi.ch//pnfs/psi.ch/cms/trivcat/store/user/koschwei/tth/ttH_AH_v4/WW_TuneCP5_13TeV-pythia8/ttH_AH_v4/181111_170329/0000/tree_75.root = 49076
root://t3dcachedb.psi.ch//pnfs/psi.ch/cms/trivcat/store/user/koschwei/tth/ttH_AH_v4/WW_TuneCP5_13TeV-pythia8/ttH_AH_v4/181111_170329/0000/tree_76.root = 49208
root://t3dcachedb.psi.ch//pnfs/psi.ch/cms/trivcat/store/user/koschwei/tth/ttH_AH_v4/WW_TuneCP5_13TeV-pythia8/ttH_AH_v4/181111_170329/0000/tree_77.root = 49274
root://t3dcachedb.psi.ch//pnfs/psi.ch/cms/trivcat/store/user/koschwei/tth/ttH_AH_v4/WW_TuneCP5_13TeV-pythia8/ttH_AH_v4/181111_170329/0000/tree_78.root = 49142
root://t3dcachedb.psi.ch//pnfs/psi.ch/cms/trivcat/store/user/koschwei/tth/ttH_AH_v4/WW_TuneCP5_13TeV-pythia8/ttH_AH_v4/181111_170329/0000/tree_79.root = 49076
root://t3dcachedb.psi.ch//pnfs/psi.ch/cms/trivcat/store/user/koschwei/tth/ttH_AH_v4/WW_TuneCP5_13TeV-pythia8/ttH_AH_v4/181111_170329/0000/tree_110.root = 49142
root://t3dcachedb.psi.ch//pnfs/psi.ch/cms/trivcat/store/user/koschwei/tth/ttH_AH_v4/WW_TuneCP5_13TeV-pythia8/ttH_AH_v4/181111_170329/0000/tree_111.root = 27966
root://t3dcachedb.psi.ch//pnfs/psi.ch/cms/trivcat/store/user/koschwei/tth/ttH_AH_v4/WW_TuneCP5_13TeV-pythia8/ttH_AH_v4/181111_170329/0000/tree_112.root = 49274
