{
    "QCD1000": {
        "7j": {
            "3t": {
                "CR": 0.6219212090910599,
                "CR2": 1.076508941667482,
                "SR": 0.6478861309700968,
                "VR": 1.1173847989047823
            },
            "4t": {
                "CR": 0.6033811081705795,
                "CR2": 0.9872486788489863,
                "SR": 0.647385077508294,
                "VR": 1.016002890146441
            }
        },
        "8j": {
            "3t": {
                "CR": 0.5720492242496393,
                "CR2": 1.0515137241069585,
                "SR": 0.6095905794619082,
                "VR": 1.060473208487156
            },
            "4t": {
                "CR": 0.5412023222829216,
                "CR2": 1.0171819036687677,
                "SR": 0.5114734664299653,
                "VR": 1.1518554435673594
            }
        },
        "9j": {
            "3t": {
                "CR": 0.49298586608015127,
                "CR2": 1.021664428751774,
                "SR": 0.5452131074624426,
                "VR": 1.0434420855000317
            },
            "4t": {
                "CR": 0.5102016218310554,
                "CR2": 0.9457539997128641,
                "SR": 0.6251187478947028,
                "VR": 0.7862598908285922
            }
        },
        "ge7j": {
            "3t": {
                "CR": 0.5690008265391475,
                "CR2": 1.055236944905843,
                "SR": 0.5992576694796996,
                "VR": 1.0769040215461199
            },
            "4t": {
                "CR": 0.5442016890522471,
                "CR2": 0.9727829387297587,
                "SR": 0.5673251280441097,
                "VR": 0.9735321074245921
            }
        }
    },
    "QCD1500": {
        "7j": {
            "3t": {
                "CR": 0.6465517603117872,
                "CR2": 1.1079602471027867,
                "SR": 0.6591487892283742,
                "VR": 1.1409285748475393
            },
            "4t": {
                "CR": 0.5772257541675767,
                "CR2": 1.032952314645058,
                "SR": 0.6266243326261859,
                "VR": 0.9913969666847008
            }
        },
        "8j": {
            "3t": {
                "CR": 0.5818327465066634,
                "CR2": 1.0479574625425732,
                "SR": 0.6208567370376327,
                "VR": 1.1812556334211182
            },
            "4t": {
                "CR": 0.5856083186478437,
                "CR2": 0.9837945901454545,
                "SR": 0.6356694724283852,
                "VR": 1.106080838309218
            }
        },
        "9j": {
            "3t": {
                "CR": 0.531218965352257,
                "CR2": 1.0262226331372581,
                "SR": 0.5331713640954265,
                "VR": 1.0387366262994555
            },
            "4t": {
                "CR": 0.4681229003947699,
                "CR2": 0.9676923557172498,
                "SR": 0.6001778830835777,
                "VR": 1.086833028378092
            }
        },
        "ge7j": {
            "3t": {
                "CR": 0.5834879118347596,
                "CR2": 1.0614717694885014,
                "SR": 0.5939680804756683,
                "VR": 1.1174744921347792
            },
            "4t": {
                "CR": 0.5316720078384167,
                "CR2": 0.9937579534289536,
                "SR": 0.5868479755045919,
                "VR": 1.0788007766580878
            }
        }
    },
    "QCD2000": {
        "7j": {
            "3t": {
                "CR": 0.6402124196448963,
                "CR2": 1.0990161163265288,
                "SR": 0.6860780853667716,
                "VR": 1.0800745088711454
            },
            "4t": {
                "CR": 0.6746849479080008,
                "CR2": 0.9877274200454834,
                "SR": 0.7032799542360215,
                "VR": 0.813378588502804
            }
        },
        "8j": {
            "3t": {
                "CR": 0.5798561015588353,
                "CR2": 1.1280535151473547,
                "SR": 0.659282847873033,
                "VR": 1.178443788670303
            },
            "4t": {
                "CR": 0.6543913743958274,
                "CR2": 0.9808049053367341,
                "SR": 1.0431308143778064,
                "VR": 0.8046131336426139
            }
        },
        "9j": {
            "3t": {
                "CR": 0.5301342758115603,
                "CR2": 1.0533767580291802,
                "SR": 0.5866460009756491,
                "VR": 1.0353158631815231
            },
            "4t": {
                "CR": 0.5525328968010749,
                "CR2": 0.9720383465353971,
                "SR": 0.5628259664843642,
                "VR": 0.8336414493913821
            }
        },
        "ge7j": {
            "3t": {
                "CR": 0.5813304168418795,
                "CR2": 1.0892620384235134,
                "SR": 0.6199654376905108,
                "VR": 1.1122276834714306
            },
            "4t": {
                "CR": 0.6066592552563865,
                "CR2": 0.9636860493283949,
                "SR": 0.6165744622493181,
                "VR": 0.8429365875788623
            }
        }
    },
    "QCD300": {
        "7j": {
            "3t": {
                "CR": 0.652080356246092,
                "CR2": 1.0244481097797695,
                "SR": 0.6216163651326965,
                "VR": 1.0249176492025558
            },
            "4t": {
                "CR": 0.7833247046224174,
                "CR2": 0.9221414128891023,
                "SR": 0.5818223247993675,
                "VR": 1.2513253563217945
            }
        },
        "8j": {
            "3t": {
                "CR": 0.4591218576835509,
                "CR2": 0.8343896457418774,
                "SR": 0.3842732502114384,
                "VR": 0.777265187897887
            },
            "4t": {
                "CR": 0.5922858093674876,
                "CR2": 1.0770312043420835,
                "SR": 0.5611349807701802,
                "VR": 0.8219006735440139
            }
        },
        "9j": {
            "3t": {
                "CR": 0.49928805637774293,
                "CR2": 0.9650604269420786,
                "SR": 0.5207045443275603,
                "VR": 0.6418284812817618
            },
            "4t": {
                "CR": 0.5558496207744495,
                "CR2": 1.0047795018764727,
                "SR": 1,
                "VR": 1
            }
        },
        "ge7j": {
            "3t": {
                "CR": 0.5590144156701086,
                "CR2": 0.9464595563322311,
                "SR": 0.5205069458238788,
                "VR": 0.8812388830598856
            },
            "4t": {
                "CR": 0.6556344498722918,
                "CR2": 0.989156335075109,
                "SR": 0.5751218147231579,
                "VR": 0.931419219154032
            }
        }
    },
    "QCD500": {
        "7j": {
            "3t": {
                "CR": 0.5727281841427588,
                "CR2": 0.9872769154526827,
                "SR": 0.627192037029207,
                "VR": 1.065979747675858
            },
            "4t": {
                "CR": 0.5843973266822166,
                "CR2": 0.9364760155816116,
                "SR": 0.6650933870565116,
                "VR": 0.9606195748371156
            }
        },
        "8j": {
            "3t": {
                "CR": 0.5544564596798837,
                "CR2": 0.9820860272404819,
                "SR": 0.5520365147458582,
                "VR": 0.9813963358698878
            },
            "4t": {
                "CR": 0.5368627936090044,
                "CR2": 0.9889476209554146,
                "SR": 0.6962449680391449,
                "VR": 1.1594006790224363
            }
        },
        "9j": {
            "3t": {
                "CR": 0.4375005837624074,
                "CR2": 0.9462289433421954,
                "SR": 0.4678535754065564,
                "VR": 1.0324108356579886
            },
            "4t": {
                "CR": 0.44329878470456086,
                "CR2": 0.8946977771318904,
                "SR": 0.5131233327043262,
                "VR": 1.0144893674947453
            }
        },
        "ge7j": {
            "3t": {
                "CR": 0.5494405559080006,
                "CR2": 0.9805257922732138,
                "SR": 0.5763262199358364,
                "VR": 1.0410399428753745
            },
            "4t": {
                "CR": 0.5387717923879912,
                "CR2": 0.9469545419903519,
                "SR": 0.6348278867678879,
                "VR": 1.03999661632596
            }
        }
    },
    "QCD700": {
        "7j": {
            "3t": {
                "CR": 0.6008748608495597,
                "CR2": 1.0625083231459,
                "SR": 0.6323167947629919,
                "VR": 1.07483386388835
            },
            "4t": {
                "CR": 0.583960546552506,
                "CR2": 1.02098674290103,
                "SR": 0.6362769964191045,
                "VR": 1.1117176891165386
            }
        },
        "8j": {
            "3t": {
                "CR": 0.528011142307831,
                "CR2": 1.031028701837337,
                "SR": 0.5767464973302747,
                "VR": 1.0238148253721224
            },
            "4t": {
                "CR": 0.5667470917232548,
                "CR2": 0.9307245368572764,
                "SR": 0.6456490290450645,
                "VR": 1.0561101171490346
            }
        },
        "9j": {
            "3t": {
                "CR": 0.4886716393564796,
                "CR2": 0.9579443877326644,
                "SR": 0.5024045794101908,
                "VR": 0.9462518036212227
            },
            "4t": {
                "CR": 0.47373255844081097,
                "CR2": 0.9074322053655447,
                "SR": 0.6124645432992266,
                "VR": 0.9986928069239627
            }
        },
        "ge7j": {
            "3t": {
                "CR": 0.5522594095815755,
                "CR2": 1.0320439861805206,
                "SR": 0.5876716538208533,
                "VR": 1.0320299195321359
            },
            "4t": {
                "CR": 0.5483364654334676,
                "CR2": 0.9541836320325395,
                "SR": 0.6309484656973194,
                "VR": 1.0592386360677355
            }
        }
    },
    "SingleMuon": {
        "7j": {
            "3t": {
                "CR": -1,
                "CR2": -1,
                "SR": -1,
                "VR": -1
            },
            "4t": {
                "CR": -1,
                "CR2": -1,
                "SR": -1,
                "VR": -1
            }
        },
        "8j": {
            "3t": {
                "CR": -1,
                "CR2": -1,
                "SR": -1,
                "VR": -1
            },
            "4t": {
                "CR": -1,
                "CR2": -1,
                "SR": -1,
                "VR": -1
            }
        },
        "9j": {
            "3t": {
                "CR": -1,
                "CR2": -1,
                "SR": -1,
                "VR": -1
            },
            "4t": {
                "CR": -1,
                "CR2": -1,
                "SR": -1,
                "VR": -1
            }
        },
        "ge7j": {
            "3t": {
                "CR": -1,
                "CR2": -1,
                "SR": -1,
                "VR": -1
            },
            "4t": {
                "CR": -1,
                "CR2": -1,
                "SR": -1,
                "VR": -1
            }
        }
    },
    "TTbar_dl": {
        "7j": {
            "3t": {
                "CR": 0.4264511847140269,
                "CR2": 0.7318411425461966,
                "SR": 0.44820628140543994,
                "VR": 0.796315184609774
            },
            "4t": {
                "CR": 0.42245189317693754,
                "CR2": 0.6339276367313752,
                "SR": 0.5018512094028134,
                "VR": 0.7239362088688995
            }
        },
        "8j": {
            "3t": {
                "CR": 0.3759049268776359,
                "CR2": 0.7239655769762514,
                "SR": 0.40760738858856477,
                "VR": 0.6901604618821031
            },
            "4t": {
                "CR": 0.3902407006486039,
                "CR2": 0.6515348084230855,
                "SR": 0.45014953225978055,
                "VR": 0.6704974423769127
            }
        },
        "9j": {
            "3t": {
                "CR": 0.3485657048917933,
                "CR2": 0.6771393774549984,
                "SR": 0.36198865655500145,
                "VR": 0.6749772287497299
            },
            "4t": {
                "CR": 0.34775605577812646,
                "CR2": 0.6029599224326144,
                "SR": 0.391332288893916,
                "VR": 0.6782596825985396
            }
        },
        "ge7j": {
            "3t": {
                "CR": 0.39450390109722167,
                "CR2": 0.7156916586076022,
                "SR": 0.41268447966366273,
                "VR": 0.7346456885674105
            },
            "4t": {
                "CR": 0.3873450766028879,
                "CR2": 0.6277698753690336,
                "SR": 0.44424281852553943,
                "VR": 0.701527981774459
            }
        }
    },
    "TTbar_fh": {
        "7j": {
            "3t": {
                "CR": 0.8783666744154397,
                "CR2": 1.0951751117639972,
                "SR": 0.8918126760935993,
                "VR": 1.0953809033015005
            },
            "4t": {
                "CR": 0.881945078945511,
                "CR2": 1.05828624665004,
                "SR": 0.9249034467077428,
                "VR": 1.0747256216858159
            }
        },
        "8j": {
            "3t": {
                "CR": 0.8090947672152028,
                "CR2": 1.0845688805757248,
                "SR": 0.8241747043801917,
                "VR": 1.095636354250398
            },
            "4t": {
                "CR": 0.8165069921737951,
                "CR2": 1.0516193792667878,
                "SR": 0.8653344670869192,
                "VR": 1.076129924346777
            }
        },
        "9j": {
            "3t": {
                "CR": 0.7278402178705516,
                "CR2": 1.052574468462238,
                "SR": 0.7472842277397876,
                "VR": 1.0457402285040245
            },
            "4t": {
                "CR": 0.7191980259808001,
                "CR2": 1.0000300695549869,
                "SR": 0.7672867705646114,
                "VR": 1.0377129824188243
            }
        },
        "ge7j": {
            "3t": {
                "CR": 0.8203274162427271,
                "CR2": 1.0819496509697277,
                "SR": 0.8293187791424824,
                "VR": 1.0829732579407723
            },
            "4t": {
                "CR": 0.7982317997946661,
                "CR2": 1.0348532286618501,
                "SR": 0.83858159714644,
                "VR": 1.0596945767927328
            }
        }
    },
    "TTbar_sl": {
        "7j": {
            "3t": {
                "CR": 0.6266229200163426,
                "CR2": 0.9306067391830616,
                "SR": 0.6527228070404902,
                "VR": 0.9716277621789923
            },
            "4t": {
                "CR": 0.6323703579166003,
                "CR2": 0.8525225175426364,
                "SR": 0.7071635193203054,
                "VR": 0.9514015354347024
            }
        },
        "8j": {
            "3t": {
                "CR": 0.5630726805147357,
                "CR2": 0.8963791909560268,
                "SR": 0.588755815548841,
                "VR": 0.9327088314970124
            },
            "4t": {
                "CR": 0.5705485631750773,
                "CR2": 0.8389662857116831,
                "SR": 0.6356897137972404,
                "VR": 0.9571949050215095
            }
        },
        "9j": {
            "3t": {
                "CR": 0.5076171074551384,
                "CR2": 0.8523915622524161,
                "SR": 0.5261253093502681,
                "VR": 0.8618228539883793
            },
            "4t": {
                "CR": 0.498607058891915,
                "CR2": 0.788599268698464,
                "SR": 0.5514182300322633,
                "VR": 0.8552136427446171
            }
        },
        "ge7j": {
            "3t": {
                "CR": 0.580813243439102,
                "CR2": 0.9039832289592458,
                "SR": 0.5998184398386701,
                "VR": 0.9327990423364032
            },
            "4t": {
                "CR": 0.5644435647152003,
                "CR2": 0.827530394010833,
                "SR": 0.6214993145716218,
                "VR": 0.9192029313501044
            }
        }
    },
    "WJetsToQQ600": {
        "7j": {
            "3t": {
                "CR": 0.8119843796712479,
                "CR2": 1.0852286851879667,
                "SR": 0.8001566549471355,
                "VR": 1.041715563749538
            },
            "4t": {
                "CR": 0.7759694733157432,
                "CR2": 1.029004328037978,
                "SR": 0.8537946193857207,
                "VR": 0.8608909968315218
            }
        },
        "8j": {
            "3t": {
                "CR": 0.6909120858970644,
                "CR2": 1.0338384156288976,
                "SR": 0.7922587281828114,
                "VR": 1.0205328280620949
            },
            "4t": {
                "CR": 0.732110035634922,
                "CR2": 0.9575572079400374,
                "SR": 0.687392688101699,
                "VR": 0.8714020116230771
            }
        },
        "9j": {
            "3t": {
                "CR": 0.5735212766212423,
                "CR2": 1.1274481287230425,
                "SR": 0.6433969159946359,
                "VR": 1.157361117768631
            },
            "4t": {
                "CR": 0.6145163475619786,
                "CR2": 1.0080154162189976,
                "SR": 0.6769729253155207,
                "VR": 1
            }
        },
        "ge7j": {
            "3t": {
                "CR": 0.7365960923332842,
                "CR2": 1.074004341774092,
                "SR": 0.7649320038989349,
                "VR": 1.0505174851146248
            },
            "4t": {
                "CR": 0.7193611315971565,
                "CR2": 1.000429656068855,
                "SR": 0.7318428134040961,
                "VR": 0.8640382178708428
            }
        }
    },
    "WJetsToQQ800": {
        "7j": {
            "3t": {
                "CR": 0.7781932014647744,
                "CR2": 1.1182558263812918,
                "SR": 0.811896733212748,
                "VR": 1.0680611771366944
            },
            "4t": {
                "CR": 0.7823702784034069,
                "CR2": 1.1357626358864064,
                "SR": 0.8506520655519936,
                "VR": 1.27411513697402
            }
        },
        "8j": {
            "3t": {
                "CR": 0.7401994707305953,
                "CR2": 1.101106064503561,
                "SR": 0.7830185909828374,
                "VR": 1.1029029106723673
            },
            "4t": {
                "CR": 0.7772457756477762,
                "CR2": 1.0540172085086017,
                "SR": 0.6845097962504177,
                "VR": 1.0403876942743
            }
        },
        "9j": {
            "3t": {
                "CR": 0.635805411118211,
                "CR2": 1.1030222188469012,
                "SR": 0.6896218302227636,
                "VR": 1.034000318438886
            },
            "4t": {
                "CR": 0.63217019296936,
                "CR2": 0.9457816005330448,
                "SR": 0.621287245396185,
                "VR": 0.9996130130741298
            }
        },
        "ge7j": {
            "3t": {
                "CR": 0.7300839603741933,
                "CR2": 1.1079303523889805,
                "SR": 0.7635260370975688,
                "VR": 1.0646508721653158
            },
            "4t": {
                "CR": 0.7146914004977534,
                "CR2": 1.0244595459315868,
                "SR": 0.7077646463958842,
                "VR": 1.0288001505104132
            }
        }
    },
    "WjetstoQQ400": {
        "7j": {
            "3t": {
                "CR": 0.800994400216393,
                "CR2": 1.0679884497800274,
                "SR": 0.7724171939214993,
                "VR": 1.0000651222719108
            },
            "4t": {
                "CR": 0.8470716959884357,
                "CR2": 1.0714370356215537,
                "SR": 0.6968023463996335,
                "VR": 1
            }
        },
        "8j": {
            "3t": {
                "CR": 0.6921538106286439,
                "CR2": 1.1103234053200481,
                "SR": 0.6706720089047797,
                "VR": 1.12557382331874
            },
            "4t": {
                "CR": 0.596667359963208,
                "CR2": 1.0445947217800708,
                "SR": 1.1335519889767058,
                "VR": 0.7097768552856861
            }
        },
        "9j": {
            "3t": {
                "CR": 0.5866061125400438,
                "CR2": 0.9208161583014904,
                "SR": 0.6270683745254405,
                "VR": 1.0939917347712218
            },
            "4t": {
                "CR": 0.4368746538081511,
                "CR2": 0.8695477374788786,
                "SR": 0.8214580657817369,
                "VR": 1
            }
        },
        "ge7j": {
            "3t": {
                "CR": 0.7465279415717038,
                "CR2": 1.0623069357238895,
                "SR": 0.716354410681267,
                "VR": 1.0535648857982438
            },
            "4t": {
                "CR": 0.6563337962230695,
                "CR2": 0.9953218617249658,
                "SR": 0.7984383629628644,
                "VR": 0.7097768552856861
            }
        }
    },
    "ZJetsToQQ400": {
        "7j": {
            "3t": {
                "CR": 0.7362945348683494,
                "CR2": 1.0524026100788182,
                "SR": 0.7537451688782085,
                "VR": 1.0155898351200583
            },
            "4t": {
                "CR": 0.7769936426038738,
                "CR2": 0.9711483119899614,
                "SR": 0.7927425133905258,
                "VR": 1.0647677277335401
            }
        },
        "8j": {
            "3t": {
                "CR": 0.6307843166510222,
                "CR2": 1.0127049629396927,
                "SR": 0.6492946218033222,
                "VR": 1.1031458354532138
            },
            "4t": {
                "CR": 0.6066785176601317,
                "CR2": 0.9215505660895874,
                "SR": 0.7733783534368542,
                "VR": 0.8890510862752028
            }
        },
        "9j": {
            "3t": {
                "CR": 0.5298193143270784,
                "CR2": 0.813107052912951,
                "SR": 0.5357800797762478,
                "VR": 1.1406189022869746
            },
            "4t": {
                "CR": 0.5967632461662303,
                "CR2": 0.7779502298963457,
                "SR": 0.525889052990088,
                "VR": 0.8332550778863372
            }
        },
        "ge7j": {
            "3t": {
                "CR": 0.6906752543732989,
                "CR2": 1.0268693156394115,
                "SR": 0.6919552596294946,
                "VR": 1.0521917777422936
            },
            "4t": {
                "CR": 0.675985053500153,
                "CR2": 0.9209550828181108,
                "SR": 0.7323217259088528,
                "VR": 0.9986818701036141
            }
        }
    },
    "ZJetsToQQ600": {
        "7j": {
            "3t": {
                "CR": 0.7193855958389448,
                "CR2": 1.0598108775583082,
                "SR": 0.7254720359038823,
                "VR": 1.0702234892474634
            },
            "4t": {
                "CR": 0.7220040064572113,
                "CR2": 1.0383552570403436,
                "SR": 0.7457529777195528,
                "VR": 1.065553637706981
            }
        },
        "8j": {
            "3t": {
                "CR": 0.6556147501257941,
                "CR2": 1.0651334138723318,
                "SR": 0.6534921992018722,
                "VR": 1.0566959614346527
            },
            "4t": {
                "CR": 0.6434535417673214,
                "CR2": 1.0406027375176061,
                "SR": 0.6640914695462146,
                "VR": 1.012888180738056
            }
        },
        "9j": {
            "3t": {
                "CR": 0.591875390193363,
                "CR2": 0.9712690532477432,
                "SR": 0.5271764360985225,
                "VR": 1.0413535380178929
            },
            "4t": {
                "CR": 0.567802066871125,
                "CR2": 0.9166685197072818,
                "SR": 0.5365979675592658,
                "VR": 0.9571852638119164
            }
        },
        "ge7j": {
            "3t": {
                "CR": 0.6870767188049631,
                "CR2": 1.050192597362918,
                "SR": 0.6781791925841691,
                "VR": 1.0645513967533764
            },
            "4t": {
                "CR": 0.6704591481525696,
                "CR2": 1.0211647989899884,
                "SR": 0.6610115137329177,
                "VR": 1.0303812589874108
            }
        }
    },
    "ZJetsToQQ800": {
        "7j": {
            "3t": {
                "CR": 0.7264720458368061,
                "CR2": 1.1054684161201993,
                "SR": 0.7390551970446657,
                "VR": 1.144840723138269
            },
            "4t": {
                "CR": 0.7282124910874302,
                "CR2": 1.0643527776211659,
                "SR": 0.7568300275025535,
                "VR": 1.0699520384833914
            }
        },
        "8j": {
            "3t": {
                "CR": 0.6783985887330796,
                "CR2": 1.0817364362938147,
                "SR": 0.6954403088140187,
                "VR": 1.1101866338529738
            },
            "4t": {
                "CR": 0.6712586023061411,
                "CR2": 1.0645651916290633,
                "SR": 0.6680458284355771,
                "VR": 1.002536004807722
            }
        },
        "9j": {
            "3t": {
                "CR": 0.5966183885383681,
                "CR2": 1.0346659185511802,
                "SR": 0.639312209532484,
                "VR": 1.096514082227953
            },
            "4t": {
                "CR": 0.5997408431518123,
                "CR2": 0.992999632532445,
                "SR": 0.6216036450097371,
                "VR": 1.0406097400746521
            }
        },
        "ge7j": {
            "3t": {
                "CR": 0.682589915881275,
                "CR2": 1.0860865455680087,
                "SR": 0.7013569476209838,
                "VR": 1.1282778611863495
            },
            "4t": {
                "CR": 0.6701052021692047,
                "CR2": 1.0370289403481079,
                "SR": 0.6787650235507252,
                "VR": 1.0337073935740166
            }
        }
    },
    "data": {
        "7j": {
            "3t": {
                "CR": -1,
                "CR2": -1,
                "SR": -1,
                "VR": -1
            },
            "4t": {
                "CR": -1,
                "CR2": -1,
                "SR": -1,
                "VR": -1
            }
        },
        "8j": {
            "3t": {
                "CR": -1,
                "CR2": -1,
                "SR": -1,
                "VR": -1
            },
            "4t": {
                "CR": -1,
                "CR2": -1,
                "SR": -1,
                "VR": -1
            }
        },
        "9j": {
            "3t": {
                "CR": -1,
                "CR2": -1,
                "SR": -1,
                "VR": -1
            },
            "4t": {
                "CR": -1,
                "CR2": -1,
                "SR": -1,
                "VR": -1
            }
        },
        "ge7j": {
            "3t": {
                "CR": -1,
                "CR2": -1,
                "SR": -1,
                "VR": -1
            },
            "4t": {
                "CR": -1,
                "CR2": -1,
                "SR": -1,
                "VR": -1
            }
        }
    },
    "st_s": {
        "7j": {
            "3t": {
                "CR": 0.5791975778273213,
                "CR2": 0.8294428721481417,
                "SR": 0.5455497856759336,
                "VR": 1.2713719164293098
            },
            "4t": {
                "CR": 0.5444305065165039,
                "CR2": 0.5437255701465042,
                "SR": 0.35630129318977855,
                "VR": 0.7555378628298364
            }
        },
        "8j": {
            "3t": {
                "CR": 0.44964641610570416,
                "CR2": 1.0036622967891125,
                "SR": 0.5582216494393826,
                "VR": 1.1587860218450925
            },
            "4t": {
                "CR": 0.7413211606784317,
                "CR2": 0.6326649752734252,
                "SR": 1,
                "VR": 0.6294712100227905
            }
        },
        "9j": {
            "3t": {
                "CR": 0.3388867875434632,
                "CR2": 1,
                "SR": 0.4160222465194069,
                "VR": 0.8304733317814952
            },
            "4t": {
                "CR": 0.63966050645433,
                "CR2": 0.49977802220229933,
                "SR": 0.33975829200579016,
                "VR": 0.8001704254178018
            }
        },
        "ge7j": {
            "3t": {
                "CR": 0.48609715246526963,
                "CR2": 0.9091478955770745,
                "SR": 0.5183084003704689,
                "VR": 1.1602261291879539
            },
            "4t": {
                "CR": 0.6006894769429374,
                "CR2": 0.5845519128944312,
                "SR": 0.3101070614129115,
                "VR": 0.7326324835736692
            }
        }
    },
    "st_t": {
        "7j": {
            "3t": {
                "CR": 0.7901460942296087,
                "CR2": 1.0212392376776718,
                "SR": 0.7997780402113717,
                "VR": 1.0591717160968461
            },
            "4t": {
                "CR": 0.7687892515721082,
                "CR2": 1.0415688387777764,
                "SR": 0.8084957973631666,
                "VR": 0.9463104603848786
            }
        },
        "8j": {
            "3t": {
                "CR": 0.6916625862710017,
                "CR2": 1.0238400208449911,
                "SR": 0.7413936381051436,
                "VR": 1.0571505480154122
            },
            "4t": {
                "CR": 0.6699320554436058,
                "CR2": 1.0352278425133499,
                "SR": 0.7772636086229936,
                "VR": 1.0087908391358957
            }
        },
        "9j": {
            "3t": {
                "CR": 0.6561076946256483,
                "CR2": 0.9734461139825694,
                "SR": 0.5382062095681318,
                "VR": 1.1279962688441825
            },
            "4t": {
                "CR": 0.5962620887168226,
                "CR2": 0.9845633998761556,
                "SR": 0.6615298701363318,
                "VR": 1.1440249784315684
            }
        },
        "ge7j": {
            "3t": {
                "CR": 0.7320136701091083,
                "CR2": 1.0228609715820534,
                "SR": 0.7160908807678189,
                "VR": 1.0773818503764103
            },
            "4t": {
                "CR": 0.6822616923303009,
                "CR2": 1.031038271378518,
                "SR": 0.742506309621655,
                "VR": 0.9948591641310631
            }
        }
    },
    "st_tw": {
        "7j": {
            "3t": {
                "CR": 0.8201316535251034,
                "CR2": 1.025986525009663,
                "SR": 0.8390033635595648,
                "VR": 1.030768337815015
            },
            "4t": {
                "CR": 0.8323227213209069,
                "CR2": 0.9576281510288629,
                "SR": 0.9405257150370022,
                "VR": 1.0720307413836356
            }
        },
        "8j": {
            "3t": {
                "CR": 0.7704209009733356,
                "CR2": 1.0269143518774755,
                "SR": 0.8009343503531394,
                "VR": 1.0217526909481653
            },
            "4t": {
                "CR": 0.74467902477128,
                "CR2": 0.9675423938865424,
                "SR": 0.9013630354532071,
                "VR": 0.9848146218916964
            }
        },
        "9j": {
            "3t": {
                "CR": 0.6995972301899984,
                "CR2": 0.941339665558447,
                "SR": 0.7230730580986605,
                "VR": 0.9698030937247192
            },
            "4t": {
                "CR": 0.6973658715612642,
                "CR2": 0.975038676126095,
                "SR": 0.7579557436159319,
                "VR": 0.9440256437016112
            }
        },
        "ge7j": {
            "3t": {
                "CR": 0.7846779570670139,
                "CR2": 1.011131071938016,
                "SR": 0.8063176763011163,
                "VR": 1.0093650779252867
            },
            "4t": {
                "CR": 0.7590056854626656,
                "CR2": 0.9657683967648727,
                "SR": 0.8556648502014953,
                "VR": 1.0089018537269667
            }
        }
    },
    "stbar_t": {
        "7j": {
            "3t": {
                "CR": 0.7896797920206404,
                "CR2": 1.0948432050619614,
                "SR": 0.8693311564657544,
                "VR": 1.001044806677345
            },
            "4t": {
                "CR": 0.8169454859322822,
                "CR2": 0.915342256664669,
                "SR": 0.95857505205456,
                "VR": 0.9928905053314635
            }
        },
        "8j": {
            "3t": {
                "CR": 0.750227528111131,
                "CR2": 1.0020003905165635,
                "SR": 0.6750641834954803,
                "VR": 1.1461456990626577
            },
            "4t": {
                "CR": 0.7104945032395097,
                "CR2": 0.9836555940906295,
                "SR": 0.7469900512492995,
                "VR": 0.8296439676617455
            }
        },
        "9j": {
            "3t": {
                "CR": 0.6973987383373316,
                "CR2": 1.1169909602633494,
                "SR": 0.7143312389913121,
                "VR": 0.9855985265647399
            },
            "4t": {
                "CR": 0.7269405942204119,
                "CR2": 1.0720182578087618,
                "SR": 0.5045904423584825,
                "VR": 1.0917264464242231
            }
        },
        "ge7j": {
            "3t": {
                "CR": 0.7649000136548632,
                "CR2": 1.0620214241048684,
                "SR": 0.7595835788609688,
                "VR": 1.039560861965762
            },
            "4t": {
                "CR": 0.7404209963476849,
                "CR2": 0.971843932074308,
                "SR": 0.7590237565167398,
                "VR": 0.9519542031802304
            }
        }
    },
    "stbar_tw": {
        "7j": {
            "3t": {
                "CR": 0.8307109446030168,
                "CR2": 1.0444027165160163,
                "SR": 0.845802056758644,
                "VR": 1.0582541485779957
            },
            "4t": {
                "CR": 0.8663503879493739,
                "CR2": 0.9755578384527601,
                "SR": 0.8574246869855181,
                "VR": 1.0013860090809086
            }
        },
        "8j": {
            "3t": {
                "CR": 0.7558171960800978,
                "CR2": 1.0371164530740022,
                "SR": 0.7679923288162204,
                "VR": 1.046689639014036
            },
            "4t": {
                "CR": 0.7635727795908022,
                "CR2": 0.9958199939576536,
                "SR": 0.8168218766096895,
                "VR": 0.7517343471565461
            }
        },
        "9j": {
            "3t": {
                "CR": 0.7194084075651717,
                "CR2": 1.0365671820349753,
                "SR": 0.7208193806611732,
                "VR": 1.0811483491929759
            },
            "4t": {
                "CR": 0.675829740988347,
                "CR2": 1.0036912945046992,
                "SR": 0.7083592814049813,
                "VR": 1.1194514852412656
            }
        },
        "ge7j": {
            "3t": {
                "CR": 0.7892938711347136,
                "CR2": 1.038883149859414,
                "SR": 0.7962349695635264,
                "VR": 1.0602444497395027
            },
            "4t": {
                "CR": 0.7746689666028058,
                "CR2": 0.9918493460091802,
                "SR": 0.8019029255537252,
                "VR": 0.928976117292132
            }
        }
    },
    "ttH_hbb": {
        "7j": {
            "3t": {
                "CR": 0.8654082734293643,
                "CR2": 1.0563723983583115,
                "SR": 0.8774747656735418,
                "VR": 1.0649716841955528
            },
            "4t": {
                "CR": 0.8694280413136241,
                "CR2": 1.0370817431594368,
                "SR": 0.9010926439628674,
                "VR": 1.0600571780451775
            }
        },
        "8j": {
            "3t": {
                "CR": 0.8093257179977529,
                "CR2": 1.0587471168893254,
                "SR": 0.8301393134450894,
                "VR": 1.0672426412699
            },
            "4t": {
                "CR": 0.8273107004340272,
                "CR2": 1.02667124533316,
                "SR": 0.8504645032499756,
                "VR": 1.0597964017546755
            }
        },
        "9j": {
            "3t": {
                "CR": 0.7362135135084475,
                "CR2": 1.0124359140564851,
                "SR": 0.7589697759304007,
                "VR": 1.038085031928621
            },
            "4t": {
                "CR": 0.7396165626902661,
                "CR2": 1.0006027508775155,
                "SR": 0.7586539405681642,
                "VR": 1.0195786715873134
            }
        },
        "ge7j": {
            "3t": {
                "CR": 0.8131152160831007,
                "CR2": 1.046622955998684,
                "SR": 0.8230553118134356,
                "VR": 1.057802501102235
            },
            "4t": {
                "CR": 0.8107894569311673,
                "CR2": 1.0198239867671015,
                "SR": 0.8248622555519676,
                "VR": 1.0451784179289008
            }
        }
    },
    "ttH_nonhbb": {
        "7j": {
            "3t": {
                "CR": 0.76956193502357,
                "CR2": 1.0215312870565203,
                "SR": 0.7852274214064683,
                "VR": 1.038516348059134
            },
            "4t": {
                "CR": 0.7618714063047537,
                "CR2": 0.9785650571174216,
                "SR": 0.779083382901598,
                "VR": 0.9956795158689167
            }
        },
        "8j": {
            "3t": {
                "CR": 0.7297516029382571,
                "CR2": 1.0132238464549321,
                "SR": 0.7438656832108532,
                "VR": 1.0343755721048549
            },
            "4t": {
                "CR": 0.7302033480147917,
                "CR2": 0.982126300785879,
                "SR": 0.7698017175248449,
                "VR": 1.0238476329415225
            }
        },
        "9j": {
            "3t": {
                "CR": 0.6735274651859013,
                "CR2": 0.9962258479849997,
                "SR": 0.6765506111816142,
                "VR": 1.010724435715248
            },
            "4t": {
                "CR": 0.6569369473966863,
                "CR2": 0.9450503575661394,
                "SR": 0.6824869385790454,
                "VR": 0.9450449626826826
            }
        },
        "ge7j": {
            "3t": {
                "CR": 0.7229043962931495,
                "CR2": 1.0089487710036695,
                "SR": 0.7251946758894445,
                "VR": 1.0271832643172805
            },
            "4t": {
                "CR": 0.7049713345834518,
                "CR2": 0.9638178022619082,
                "SR": 0.7238474604547831,
                "VR": 0.9761444273775156
            }
        }
    },
    "ttw_wqq": {
        "7j": {
            "3t": {
                "CR": 0.8747640004026078,
                "CR2": 1.0602869390618712,
                "SR": 0.9217885331035949,
                "VR": 1.0396632403886243
            },
            "4t": {
                "CR": 0.8781534496606432,
                "CR2": 0.9593674906557476,
                "SR": 0.9890680805578259,
                "VR": 1.2049271202246188
            }
        },
        "8j": {
            "3t": {
                "CR": 0.8626406902050208,
                "CR2": 1.059284735868183,
                "SR": 0.8701205665963979,
                "VR": 0.9664088400974427
            },
            "4t": {
                "CR": 0.8568903622871332,
                "CR2": 1.0320393226775681,
                "SR": 0.8853557032205737,
                "VR": 0.8544411816536378
            }
        },
        "9j": {
            "3t": {
                "CR": 0.790690276191893,
                "CR2": 1.0445765706271861,
                "SR": 0.7987840118927532,
                "VR": 1.078239044553646
            },
            "4t": {
                "CR": 0.7576266684115551,
                "CR2": 1.11085457619178,
                "SR": 0.899278857092877,
                "VR": 0.8860895853947235
            }
        },
        "ge7j": {
            "3t": {
                "CR": 0.8431324044419846,
                "CR2": 1.058719894239654,
                "SR": 0.8587551092490238,
                "VR": 1.0266677633043106
            },
            "4t": {
                "CR": 0.8243893791878947,
                "CR2": 1.0378293199667339,
                "SR": 0.9249044425010026,
                "VR": 0.9336343685447004
            }
        }
    },
    "ttz_zqq": {
        "7j": {
            "3t": {
                "CR": 0.8835125419367558,
                "CR2": 1.0488504984624252,
                "SR": 0.8956208589228359,
                "VR": 1.056156952557716
            },
            "4t": {
                "CR": 0.8717173149748713,
                "CR2": 0.9687786449966147,
                "SR": 0.875291315620501,
                "VR": 1.0210990172762457
            }
        },
        "8j": {
            "3t": {
                "CR": 0.839549625999178,
                "CR2": 1.0153572793492942,
                "SR": 0.847548200782707,
                "VR": 1.053999802756633
            },
            "4t": {
                "CR": 0.8212970517606869,
                "CR2": 1.0258198811031267,
                "SR": 0.8077799654281098,
                "VR": 0.8092376166159395
            }
        },
        "9j": {
            "3t": {
                "CR": 0.7707349345225359,
                "CR2": 0.9773972511711436,
                "SR": 0.7707660560673315,
                "VR": 1.2032638434093024
            },
            "4t": {
                "CR": 0.7289409629474708,
                "CR2": 0.9712817090072178,
                "SR": 0.8228168623194316,
                "VR": 0.8868887359484142
            }
        },
        "ge7j": {
            "3t": {
                "CR": 0.8290558140410718,
                "CR2": 1.0246388260414272,
                "SR": 0.8438870239656505,
                "VR": 1.0945974365534477
            },
            "4t": {
                "CR": 0.7897615002749491,
                "CR2": 1.0001373589256277,
                "SR": 0.8377735707507894,
                "VR": 0.9440377433777511
            }
        }
    },
    "ww": {
        "7j": {
            "3t": {
                "CR": 0.9667546387855346,
                "CR2": 0.9323337805216512,
                "SR": 1.0047807085629108,
                "VR": 1
            },
            "4t": {
                "CR": 0.8599165416290616,
                "CR2": 1.2016561064026647,
                "SR": 1,
                "VR": 1
            }
        },
        "8j": {
            "3t": {
                "CR": 0.7115191842717454,
                "CR2": 1.5949444449213084,
                "SR": 1,
                "VR": 1.1313483472662327
            },
            "4t": {
                "CR": 0.949751116693786,
                "CR2": 1,
                "SR": 1.0129130516861808,
                "VR": 1
            }
        },
        "9j": {
            "3t": {
                "CR": 1,
                "CR2": 1.7619547868214263,
                "SR": 1.0894259796196848,
                "VR": 1
            },
            "4t": {
                "CR": 1,
                "CR2": 1,
                "SR": 1,
                "VR": 1
            }
        },
        "ge7j": {
            "3t": {
                "CR": 0.8371519453838696,
                "CR2": 1.2126682836323814,
                "SR": 1.0240772489629912,
                "VR": 1.1313483472662327
            },
            "4t": {
                "CR": 0.8644422440188976,
                "CR2": 1.2016561064026647,
                "SR": 1.0129130516861808,
                "VR": 1
            }
        }
    },
    "wz": {
        "7j": {
            "3t": {
                "CR": 0.7497731600467029,
                "CR2": 1.3248947753854892,
                "SR": 0.8299493962077945,
                "VR": 1.6803354277123133
            },
            "4t": {
                "CR": 0.9132917980555117,
                "CR2": 0.8976838534685944,
                "SR": 0.9146151012266622,
                "VR": 1.536172792251232
            }
        },
        "8j": {
            "3t": {
                "CR": 0.626916394696427,
                "CR2": 0.7494744264840077,
                "SR": 0.5278269387347057,
                "VR": 0.5126898966836478
            },
            "4t": {
                "CR": 0.8077620514711823,
                "CR2": 0.9965527906509105,
                "SR": 0.7085263720305619,
                "VR": 1
            }
        },
        "9j": {
            "3t": {
                "CR": 0.38157834781106154,
                "CR2": 1,
                "SR": 0.36645015016093613,
                "VR": 1.0022364315741321
            },
            "4t": {
                "CR": 1,
                "CR2": 1,
                "SR": 1,
                "VR": 1
            }
        },
        "ge7j": {
            "3t": {
                "CR": 0.6329775682285919,
                "CR2": 1.0177857453163526,
                "SR": 0.6575428260854828,
                "VR": 0.7717084512536713
            },
            "4t": {
                "CR": 0.8949221406497916,
                "CR2": 0.9216026958070184,
                "SR": 0.7088369340347934,
                "VR": 1.536172792251232
            }
        }
    },
    "zz": {
        "7j": {
            "3t": {
                "CR": 0.6472492267633628,
                "CR2": 1.1442199270388607,
                "SR": 0.9391422037802649,
                "VR": 0.8313900105436429
            },
            "4t": {
                "CR": 1.0377152343105747,
                "CR2": 1.2182781175512039,
                "SR": 0.9649171982298359,
                "VR": 1.3993629679802626
            }
        },
        "8j": {
            "3t": {
                "CR": 0.4834153997426895,
                "CR2": 1.0037103701113588,
                "SR": 0.7400947551255744,
                "VR": 0.9515022371980679
            },
            "4t": {
                "CR": 1,
                "CR2": 1.4770695426344187,
                "SR": 1,
                "VR": 0.6303834471903882
            }
        },
        "9j": {
            "3t": {
                "CR": 0.7416200779000489,
                "CR2": 1,
                "SR": 1,
                "VR": 1.3852983032686073
            },
            "4t": {
                "CR": 1.3711649256791616,
                "CR2": 1,
                "SR": 1.2886049480660726,
                "VR": 1
            }
        },
        "ge7j": {
            "3t": {
                "CR": 0.6065650420872875,
                "CR2": 1.1118443957278823,
                "SR": 0.79974907440859,
                "VR": 0.9670343289598987
            },
            "4t": {
                "CR": 1.1404802641115872,
                "CR2": 1.3211008514355245,
                "SR": 1.0203427239772616,
                "VR": 1.2014676444046604
            }
        }
    }
}