[QCD_Pt_1400to1800_TuneCP5_13TeV_pythia8]
root://t3dcachedb.psi.ch//pnfs/psi.ch/cms/trivcat/store/user/koschwei/tth/ttH_AH_noME_v3/QCD_Pt_1400to1800_TuneCP5_13TeV_pythia8/ttH_AH_noME_v3/181020_155552/0000/tree_90.root = 54546
root://t3dcachedb.psi.ch//pnfs/psi.ch/cms/trivcat/store/user/koschwei/tth/ttH_AH_noME_v3/QCD_Pt_1400to1800_TuneCP5_13TeV_pythia8/ttH_AH_noME_v3/181020_155552/0000/tree_47.root = 56494
root://t3dcachedb.psi.ch//pnfs/psi.ch/cms/trivcat/store/user/koschwei/tth/ttH_AH_noME_v3/QCD_Pt_1400to1800_TuneCP5_13TeV_pythia8/ttH_AH_noME_v3/181020_155552/0000/tree_49.root = 59416
root://t3dcachedb.psi.ch//pnfs/psi.ch/cms/trivcat/store/user/koschwei/tth/ttH_AH_noME_v3/QCD_Pt_1400to1800_TuneCP5_13TeV_pythia8/ttH_AH_noME_v3/181020_155552/0000/tree_41.root = 60390
root://t3dcachedb.psi.ch//pnfs/psi.ch/cms/trivcat/store/user/koschwei/tth/ttH_AH_noME_v3/QCD_Pt_1400to1800_TuneCP5_13TeV_pythia8/ttH_AH_noME_v3/181020_155552/0000/tree_42.root = 56494
root://t3dcachedb.psi.ch//pnfs/psi.ch/cms/trivcat/store/user/koschwei/tth/ttH_AH_noME_v3/QCD_Pt_1400to1800_TuneCP5_13TeV_pythia8/ttH_AH_noME_v3/181020_155552/0000/tree_34.root = 56494
root://t3dcachedb.psi.ch//pnfs/psi.ch/cms/trivcat/store/user/koschwei/tth/ttH_AH_noME_v3/QCD_Pt_1400to1800_TuneCP5_13TeV_pythia8/ttH_AH_noME_v3/181020_155552/0000/tree_83.root = 56494
root://t3dcachedb.psi.ch//pnfs/psi.ch/cms/trivcat/store/user/koschwei/tth/ttH_AH_noME_v3/QCD_Pt_1400to1800_TuneCP5_13TeV_pythia8/ttH_AH_noME_v3/181020_155552/0000/tree_96.root = 57468
root://t3dcachedb.psi.ch//pnfs/psi.ch/cms/trivcat/store/user/koschwei/tth/ttH_AH_noME_v3/QCD_Pt_1400to1800_TuneCP5_13TeV_pythia8/ttH_AH_noME_v3/181020_155552/0000/tree_87.root = 58442
root://t3dcachedb.psi.ch//pnfs/psi.ch/cms/trivcat/store/user/koschwei/tth/ttH_AH_noME_v3/QCD_Pt_1400to1800_TuneCP5_13TeV_pythia8/ttH_AH_noME_v3/181020_155552/0000/tree_95.root = 58442
root://t3dcachedb.psi.ch//pnfs/psi.ch/cms/trivcat/store/user/koschwei/tth/ttH_AH_noME_v3/QCD_Pt_1400to1800_TuneCP5_13TeV_pythia8/ttH_AH_noME_v3/181020_155552/0000/tree_39.root = 55520
root://t3dcachedb.psi.ch//pnfs/psi.ch/cms/trivcat/store/user/koschwei/tth/ttH_AH_noME_v3/QCD_Pt_1400to1800_TuneCP5_13TeV_pythia8/ttH_AH_noME_v3/181020_155552/0000/tree_91.root = 58442
root://t3dcachedb.psi.ch//pnfs/psi.ch/cms/trivcat/store/user/koschwei/tth/ttH_AH_noME_v3/QCD_Pt_1400to1800_TuneCP5_13TeV_pythia8/ttH_AH_noME_v3/181020_155552/0000/tree_45.root = 57468
root://t3dcachedb.psi.ch//pnfs/psi.ch/cms/trivcat/store/user/koschwei/tth/ttH_AH_noME_v3/QCD_Pt_1400to1800_TuneCP5_13TeV_pythia8/ttH_AH_noME_v3/181020_155552/0000/tree_40.root = 54546
root://t3dcachedb.psi.ch//pnfs/psi.ch/cms/trivcat/store/user/koschwei/tth/ttH_AH_noME_v3/QCD_Pt_1400to1800_TuneCP5_13TeV_pythia8/ttH_AH_noME_v3/181020_155552/0000/tree_33.root = 60390
root://t3dcachedb.psi.ch//pnfs/psi.ch/cms/trivcat/store/user/koschwei/tth/ttH_AH_noME_v3/QCD_Pt_1400to1800_TuneCP5_13TeV_pythia8/ttH_AH_noME_v3/181020_155552/0000/tree_38.root = 57468
root://t3dcachedb.psi.ch//pnfs/psi.ch/cms/trivcat/store/user/koschwei/tth/ttH_AH_noME_v3/QCD_Pt_1400to1800_TuneCP5_13TeV_pythia8/ttH_AH_noME_v3/181020_155552/0000/tree_94.root = 59416
root://t3dcachedb.psi.ch//pnfs/psi.ch/cms/trivcat/store/user/koschwei/tth/ttH_AH_noME_v3/QCD_Pt_1400to1800_TuneCP5_13TeV_pythia8/ttH_AH_noME_v3/181020_155552/0000/tree_81.root = 53572
root://t3dcachedb.psi.ch//pnfs/psi.ch/cms/trivcat/store/user/koschwei/tth/ttH_AH_noME_v3/QCD_Pt_1400to1800_TuneCP5_13TeV_pythia8/ttH_AH_noME_v3/181020_155552/0000/tree_48.root = 31804
root://t3dcachedb.psi.ch//pnfs/psi.ch/cms/trivcat/store/user/koschwei/tth/ttH_AH_noME_v3/QCD_Pt_1400to1800_TuneCP5_13TeV_pythia8/ttH_AH_noME_v3/181020_155552/0000/tree_37.root = 31728
root://t3dcachedb.psi.ch//pnfs/psi.ch/cms/trivcat/store/user/koschwei/tth/ttH_AH_noME_v3/QCD_Pt_1400to1800_TuneCP5_13TeV_pythia8/ttH_AH_noME_v3/181020_155552/0000/tree_50.root = 28407
root://t3dcachedb.psi.ch//pnfs/psi.ch/cms/trivcat/store/user/koschwei/tth/ttH_AH_noME_v3/QCD_Pt_1400to1800_TuneCP5_13TeV_pythia8/ttH_AH_noME_v3/181020_155552/0000/tree_84.root = 54546
root://t3dcachedb.psi.ch//pnfs/psi.ch/cms/trivcat/store/user/koschwei/tth/ttH_AH_noME_v3/QCD_Pt_1400to1800_TuneCP5_13TeV_pythia8/ttH_AH_noME_v3/181020_155552/0000/tree_92.root = 61364
root://t3dcachedb.psi.ch//pnfs/psi.ch/cms/trivcat/store/user/koschwei/tth/ttH_AH_noME_v3/QCD_Pt_1400to1800_TuneCP5_13TeV_pythia8/ttH_AH_noME_v3/181020_155552/0000/tree_46.root = 58442
root://t3dcachedb.psi.ch//pnfs/psi.ch/cms/trivcat/store/user/koschwei/tth/ttH_AH_noME_v3/QCD_Pt_1400to1800_TuneCP5_13TeV_pythia8/ttH_AH_noME_v3/181020_155552/0000/tree_88.root = 59416
root://t3dcachedb.psi.ch//pnfs/psi.ch/cms/trivcat/store/user/koschwei/tth/ttH_AH_noME_v3/QCD_Pt_1400to1800_TuneCP5_13TeV_pythia8/ttH_AH_noME_v3/181020_155552/0000/tree_30.root = 58442
root://t3dcachedb.psi.ch//pnfs/psi.ch/cms/trivcat/store/user/koschwei/tth/ttH_AH_noME_v3/QCD_Pt_1400to1800_TuneCP5_13TeV_pythia8/ttH_AH_noME_v3/181020_155552/0000/tree_44.root = 61364
root://t3dcachedb.psi.ch//pnfs/psi.ch/cms/trivcat/store/user/koschwei/tth/ttH_AH_noME_v3/QCD_Pt_1400to1800_TuneCP5_13TeV_pythia8/ttH_AH_noME_v3/181020_155552/0000/tree_36.root = 58442
root://t3dcachedb.psi.ch//pnfs/psi.ch/cms/trivcat/store/user/koschwei/tth/ttH_AH_noME_v3/QCD_Pt_1400to1800_TuneCP5_13TeV_pythia8/ttH_AH_noME_v3/181020_155552/0000/tree_86.root = 55520
root://t3dcachedb.psi.ch//pnfs/psi.ch/cms/trivcat/store/user/koschwei/tth/ttH_AH_noME_v3/QCD_Pt_1400to1800_TuneCP5_13TeV_pythia8/ttH_AH_noME_v3/181020_155552/0000/tree_35.root = 58442
root://t3dcachedb.psi.ch//pnfs/psi.ch/cms/trivcat/store/user/koschwei/tth/ttH_AH_noME_v3/QCD_Pt_1400to1800_TuneCP5_13TeV_pythia8/ttH_AH_noME_v3/181020_155552/0000/tree_98.root = 54546
root://t3dcachedb.psi.ch//pnfs/psi.ch/cms/trivcat/store/user/koschwei/tth/ttH_AH_noME_v3/QCD_Pt_1400to1800_TuneCP5_13TeV_pythia8/ttH_AH_noME_v3/181020_155552/0000/tree_43.root = 57468
root://t3dcachedb.psi.ch//pnfs/psi.ch/cms/trivcat/store/user/koschwei/tth/ttH_AH_noME_v3/QCD_Pt_1400to1800_TuneCP5_13TeV_pythia8/ttH_AH_noME_v3/181020_155552/0000/tree_82.root = 60390
root://t3dcachedb.psi.ch//pnfs/psi.ch/cms/trivcat/store/user/koschwei/tth/ttH_AH_noME_v3/QCD_Pt_1400to1800_TuneCP5_13TeV_pythia8/ttH_AH_noME_v3/181020_155552/0000/tree_31.root = 56494
root://t3dcachedb.psi.ch//pnfs/psi.ch/cms/trivcat/store/user/koschwei/tth/ttH_AH_noME_v3/QCD_Pt_1400to1800_TuneCP5_13TeV_pythia8/ttH_AH_noME_v3/181020_155552/0000/tree_32.root = 57468
root://t3dcachedb.psi.ch//pnfs/psi.ch/cms/trivcat/store/user/koschwei/tth/ttH_AH_noME_v3/QCD_Pt_1400to1800_TuneCP5_13TeV_pythia8/ttH_AH_noME_v3/181020_155552/0000/tree_85.root = 58442
root://t3dcachedb.psi.ch//pnfs/psi.ch/cms/trivcat/store/user/koschwei/tth/ttH_AH_noME_v3/QCD_Pt_1400to1800_TuneCP5_13TeV_pythia8/ttH_AH_noME_v3/181020_155552/0000/tree_99.root = 57468
root://t3dcachedb.psi.ch//pnfs/psi.ch/cms/trivcat/store/user/koschwei/tth/ttH_AH_noME_v3/QCD_Pt_1400to1800_TuneCP5_13TeV_pythia8/ttH_AH_noME_v3/181020_155552/0000/tree_93.root = 52598
root://t3dcachedb.psi.ch//pnfs/psi.ch/cms/trivcat/store/user/koschwei/tth/ttH_AH_noME_v3/QCD_Pt_1400to1800_TuneCP5_13TeV_pythia8/ttH_AH_noME_v3/181020_155552/0000/tree_89.root = 57468
root://t3dcachedb.psi.ch//pnfs/psi.ch/cms/trivcat/store/user/koschwei/tth/ttH_AH_noME_v3/QCD_Pt_1400to1800_TuneCP5_13TeV_pythia8/ttH_AH_noME_v3/181020_155552/0000/tree_97.root = 58442
root://t3dcachedb.psi.ch//pnfs/psi.ch/cms/trivcat/store/user/koschwei/tth/ttH_AH_noME_v3/QCD_Pt_1400to1800_TuneCP5_13TeV_pythia8/ttH_AH_noME_v3/181020_155552/0000/tree_80.root = 54546
root://t3dcachedb.psi.ch//pnfs/psi.ch/cms/trivcat/store/user/koschwei/tth/ttH_AH_noME_v3/QCD_Pt_1400to1800_TuneCP5_13TeV_pythia8/ttH_AH_noME_v3/181020_155552/0000/tree_51.root = 59416
root://t3dcachedb.psi.ch//pnfs/psi.ch/cms/trivcat/store/user/koschwei/tth/ttH_AH_noME_v3/QCD_Pt_1400to1800_TuneCP5_13TeV_pythia8/ttH_AH_noME_v3/181020_155552/0000/tree_52.root = 56494
root://t3dcachedb.psi.ch//pnfs/psi.ch/cms/trivcat/store/user/koschwei/tth/ttH_AH_noME_v3/QCD_Pt_1400to1800_TuneCP5_13TeV_pythia8/ttH_AH_noME_v3/181020_155552/0000/tree_53.root = 56494
root://t3dcachedb.psi.ch//pnfs/psi.ch/cms/trivcat/store/user/koschwei/tth/ttH_AH_noME_v3/QCD_Pt_1400to1800_TuneCP5_13TeV_pythia8/ttH_AH_noME_v3/181020_155552/0000/tree_54.root = 52598
root://t3dcachedb.psi.ch//pnfs/psi.ch/cms/trivcat/store/user/koschwei/tth/ttH_AH_noME_v3/QCD_Pt_1400to1800_TuneCP5_13TeV_pythia8/ttH_AH_noME_v3/181020_155552/0000/tree_55.root = 57468
root://t3dcachedb.psi.ch//pnfs/psi.ch/cms/trivcat/store/user/koschwei/tth/ttH_AH_noME_v3/QCD_Pt_1400to1800_TuneCP5_13TeV_pythia8/ttH_AH_noME_v3/181020_155552/0000/tree_56.root = 54546
root://t3dcachedb.psi.ch//pnfs/psi.ch/cms/trivcat/store/user/koschwei/tth/ttH_AH_noME_v3/QCD_Pt_1400to1800_TuneCP5_13TeV_pythia8/ttH_AH_noME_v3/181020_155552/0000/tree_57.root = 56494
root://t3dcachedb.psi.ch//pnfs/psi.ch/cms/trivcat/store/user/koschwei/tth/ttH_AH_noME_v3/QCD_Pt_1400to1800_TuneCP5_13TeV_pythia8/ttH_AH_noME_v3/181020_155552/0000/tree_58.root = 56494
root://t3dcachedb.psi.ch//pnfs/psi.ch/cms/trivcat/store/user/koschwei/tth/ttH_AH_noME_v3/QCD_Pt_1400to1800_TuneCP5_13TeV_pythia8/ttH_AH_noME_v3/181020_155552/0000/tree_59.root = 53572
root://t3dcachedb.psi.ch//pnfs/psi.ch/cms/trivcat/store/user/koschwei/tth/ttH_AH_noME_v3/QCD_Pt_1400to1800_TuneCP5_13TeV_pythia8/ttH_AH_noME_v3/181020_155552/0000/tree_10.root = 60390
root://t3dcachedb.psi.ch//pnfs/psi.ch/cms/trivcat/store/user/koschwei/tth/ttH_AH_noME_v3/QCD_Pt_1400to1800_TuneCP5_13TeV_pythia8/ttH_AH_noME_v3/181020_155552/0000/tree_11.root = 54546
root://t3dcachedb.psi.ch//pnfs/psi.ch/cms/trivcat/store/user/koschwei/tth/ttH_AH_noME_v3/QCD_Pt_1400to1800_TuneCP5_13TeV_pythia8/ttH_AH_noME_v3/181020_155552/0000/tree_12.root = 55520
root://t3dcachedb.psi.ch//pnfs/psi.ch/cms/trivcat/store/user/koschwei/tth/ttH_AH_noME_v3/QCD_Pt_1400to1800_TuneCP5_13TeV_pythia8/ttH_AH_noME_v3/181020_155552/0000/tree_13.root = 57468
root://t3dcachedb.psi.ch//pnfs/psi.ch/cms/trivcat/store/user/koschwei/tth/ttH_AH_noME_v3/QCD_Pt_1400to1800_TuneCP5_13TeV_pythia8/ttH_AH_noME_v3/181020_155552/0000/tree_14.root = 58442
root://t3dcachedb.psi.ch//pnfs/psi.ch/cms/trivcat/store/user/koschwei/tth/ttH_AH_noME_v3/QCD_Pt_1400to1800_TuneCP5_13TeV_pythia8/ttH_AH_noME_v3/181020_155552/0000/tree_1.root = 56494
root://t3dcachedb.psi.ch//pnfs/psi.ch/cms/trivcat/store/user/koschwei/tth/ttH_AH_noME_v3/QCD_Pt_1400to1800_TuneCP5_13TeV_pythia8/ttH_AH_noME_v3/181020_155552/0000/tree_60.root = 28040
root://t3dcachedb.psi.ch//pnfs/psi.ch/cms/trivcat/store/user/koschwei/tth/ttH_AH_noME_v3/QCD_Pt_1400to1800_TuneCP5_13TeV_pythia8/ttH_AH_noME_v3/181020_155552/0000/tree_15.root = 54546
root://t3dcachedb.psi.ch//pnfs/psi.ch/cms/trivcat/store/user/koschwei/tth/ttH_AH_noME_v3/QCD_Pt_1400to1800_TuneCP5_13TeV_pythia8/ttH_AH_noME_v3/181020_155552/0000/tree_2.root = 56494
root://t3dcachedb.psi.ch//pnfs/psi.ch/cms/trivcat/store/user/koschwei/tth/ttH_AH_noME_v3/QCD_Pt_1400to1800_TuneCP5_13TeV_pythia8/ttH_AH_noME_v3/181020_155552/0000/tree_61.root = 59416
root://t3dcachedb.psi.ch//pnfs/psi.ch/cms/trivcat/store/user/koschwei/tth/ttH_AH_noME_v3/QCD_Pt_1400to1800_TuneCP5_13TeV_pythia8/ttH_AH_noME_v3/181020_155552/0000/tree_16.root = 55520
root://t3dcachedb.psi.ch//pnfs/psi.ch/cms/trivcat/store/user/koschwei/tth/ttH_AH_noME_v3/QCD_Pt_1400to1800_TuneCP5_13TeV_pythia8/ttH_AH_noME_v3/181020_155552/0000/tree_3.root = 53572
root://t3dcachedb.psi.ch//pnfs/psi.ch/cms/trivcat/store/user/koschwei/tth/ttH_AH_noME_v3/QCD_Pt_1400to1800_TuneCP5_13TeV_pythia8/ttH_AH_noME_v3/181020_155552/0000/tree_62.root = 55520
root://t3dcachedb.psi.ch//pnfs/psi.ch/cms/trivcat/store/user/koschwei/tth/ttH_AH_noME_v3/QCD_Pt_1400to1800_TuneCP5_13TeV_pythia8/ttH_AH_noME_v3/181020_155552/0000/tree_17.root = 58442
root://t3dcachedb.psi.ch//pnfs/psi.ch/cms/trivcat/store/user/koschwei/tth/ttH_AH_noME_v3/QCD_Pt_1400to1800_TuneCP5_13TeV_pythia8/ttH_AH_noME_v3/181020_155552/0000/tree_4.root = 62338
root://t3dcachedb.psi.ch//pnfs/psi.ch/cms/trivcat/store/user/koschwei/tth/ttH_AH_noME_v3/QCD_Pt_1400to1800_TuneCP5_13TeV_pythia8/ttH_AH_noME_v3/181020_155552/0000/tree_63.root = 54546
root://t3dcachedb.psi.ch//pnfs/psi.ch/cms/trivcat/store/user/koschwei/tth/ttH_AH_noME_v3/QCD_Pt_1400to1800_TuneCP5_13TeV_pythia8/ttH_AH_noME_v3/181020_155552/0000/tree_18.root = 54546
root://t3dcachedb.psi.ch//pnfs/psi.ch/cms/trivcat/store/user/koschwei/tth/ttH_AH_noME_v3/QCD_Pt_1400to1800_TuneCP5_13TeV_pythia8/ttH_AH_noME_v3/181020_155552/0000/tree_5.root = 56494
root://t3dcachedb.psi.ch//pnfs/psi.ch/cms/trivcat/store/user/koschwei/tth/ttH_AH_noME_v3/QCD_Pt_1400to1800_TuneCP5_13TeV_pythia8/ttH_AH_noME_v3/181020_155552/0000/tree_64.root = 58442
root://t3dcachedb.psi.ch//pnfs/psi.ch/cms/trivcat/store/user/koschwei/tth/ttH_AH_noME_v3/QCD_Pt_1400to1800_TuneCP5_13TeV_pythia8/ttH_AH_noME_v3/181020_155552/0000/tree_19.root = 57468
root://t3dcachedb.psi.ch//pnfs/psi.ch/cms/trivcat/store/user/koschwei/tth/ttH_AH_noME_v3/QCD_Pt_1400to1800_TuneCP5_13TeV_pythia8/ttH_AH_noME_v3/181020_155552/0000/tree_6.root = 51624
root://t3dcachedb.psi.ch//pnfs/psi.ch/cms/trivcat/store/user/koschwei/tth/ttH_AH_noME_v3/QCD_Pt_1400to1800_TuneCP5_13TeV_pythia8/ttH_AH_noME_v3/181020_155552/0000/tree_65.root = 53572
root://t3dcachedb.psi.ch//pnfs/psi.ch/cms/trivcat/store/user/koschwei/tth/ttH_AH_noME_v3/QCD_Pt_1400to1800_TuneCP5_13TeV_pythia8/ttH_AH_noME_v3/181020_155552/0000/tree_7.root = 52598
root://t3dcachedb.psi.ch//pnfs/psi.ch/cms/trivcat/store/user/koschwei/tth/ttH_AH_noME_v3/QCD_Pt_1400to1800_TuneCP5_13TeV_pythia8/ttH_AH_noME_v3/181020_155552/0000/tree_66.root = 58442
root://t3dcachedb.psi.ch//pnfs/psi.ch/cms/trivcat/store/user/koschwei/tth/ttH_AH_noME_v3/QCD_Pt_1400to1800_TuneCP5_13TeV_pythia8/ttH_AH_noME_v3/181020_155552/0000/tree_8.root = 58442
root://t3dcachedb.psi.ch//pnfs/psi.ch/cms/trivcat/store/user/koschwei/tth/ttH_AH_noME_v3/QCD_Pt_1400to1800_TuneCP5_13TeV_pythia8/ttH_AH_noME_v3/181020_155552/0000/tree_67.root = 58442
root://t3dcachedb.psi.ch//pnfs/psi.ch/cms/trivcat/store/user/koschwei/tth/ttH_AH_noME_v3/QCD_Pt_1400to1800_TuneCP5_13TeV_pythia8/ttH_AH_noME_v3/181020_155552/0000/tree_9.root = 55520
root://t3dcachedb.psi.ch//pnfs/psi.ch/cms/trivcat/store/user/koschwei/tth/ttH_AH_noME_v3/QCD_Pt_1400to1800_TuneCP5_13TeV_pythia8/ttH_AH_noME_v3/181020_155552/0000/tree_68.root = 57468
root://t3dcachedb.psi.ch//pnfs/psi.ch/cms/trivcat/store/user/koschwei/tth/ttH_AH_noME_v3/QCD_Pt_1400to1800_TuneCP5_13TeV_pythia8/ttH_AH_noME_v3/181020_155552/0000/tree_69.root = 53572
root://t3dcachedb.psi.ch//pnfs/psi.ch/cms/trivcat/store/user/koschwei/tth/ttH_AH_noME_v3/QCD_Pt_1400to1800_TuneCP5_13TeV_pythia8/ttH_AH_noME_v3/181020_155552/0000/tree_100.root = 57468
root://t3dcachedb.psi.ch//pnfs/psi.ch/cms/trivcat/store/user/koschwei/tth/ttH_AH_noME_v3/QCD_Pt_1400to1800_TuneCP5_13TeV_pythia8/ttH_AH_noME_v3/181020_155552/0000/tree_101.root = 9130
root://t3dcachedb.psi.ch//pnfs/psi.ch/cms/trivcat/store/user/koschwei/tth/ttH_AH_noME_v3/QCD_Pt_1400to1800_TuneCP5_13TeV_pythia8/ttH_AH_noME_v3/181020_155552/0000/tree_20.root = 53572
root://t3dcachedb.psi.ch//pnfs/psi.ch/cms/trivcat/store/user/koschwei/tth/ttH_AH_noME_v3/QCD_Pt_1400to1800_TuneCP5_13TeV_pythia8/ttH_AH_noME_v3/181020_155552/0000/tree_21.root = 56494
root://t3dcachedb.psi.ch//pnfs/psi.ch/cms/trivcat/store/user/koschwei/tth/ttH_AH_noME_v3/QCD_Pt_1400to1800_TuneCP5_13TeV_pythia8/ttH_AH_noME_v3/181020_155552/0000/tree_22.root = 56494
root://t3dcachedb.psi.ch//pnfs/psi.ch/cms/trivcat/store/user/koschwei/tth/ttH_AH_noME_v3/QCD_Pt_1400to1800_TuneCP5_13TeV_pythia8/ttH_AH_noME_v3/181020_155552/0000/tree_23.root = 57468
root://t3dcachedb.psi.ch//pnfs/psi.ch/cms/trivcat/store/user/koschwei/tth/ttH_AH_noME_v3/QCD_Pt_1400to1800_TuneCP5_13TeV_pythia8/ttH_AH_noME_v3/181020_155552/0000/tree_24.root = 54546
root://t3dcachedb.psi.ch//pnfs/psi.ch/cms/trivcat/store/user/koschwei/tth/ttH_AH_noME_v3/QCD_Pt_1400to1800_TuneCP5_13TeV_pythia8/ttH_AH_noME_v3/181020_155552/0000/tree_70.root = 60390
root://t3dcachedb.psi.ch//pnfs/psi.ch/cms/trivcat/store/user/koschwei/tth/ttH_AH_noME_v3/QCD_Pt_1400to1800_TuneCP5_13TeV_pythia8/ttH_AH_noME_v3/181020_155552/0000/tree_25.root = 57468
root://t3dcachedb.psi.ch//pnfs/psi.ch/cms/trivcat/store/user/koschwei/tth/ttH_AH_noME_v3/QCD_Pt_1400to1800_TuneCP5_13TeV_pythia8/ttH_AH_noME_v3/181020_155552/0000/tree_71.root = 56494
root://t3dcachedb.psi.ch//pnfs/psi.ch/cms/trivcat/store/user/koschwei/tth/ttH_AH_noME_v3/QCD_Pt_1400to1800_TuneCP5_13TeV_pythia8/ttH_AH_noME_v3/181020_155552/0000/tree_26.root = 55520
root://t3dcachedb.psi.ch//pnfs/psi.ch/cms/trivcat/store/user/koschwei/tth/ttH_AH_noME_v3/QCD_Pt_1400to1800_TuneCP5_13TeV_pythia8/ttH_AH_noME_v3/181020_155552/0000/tree_72.root = 56494
root://t3dcachedb.psi.ch//pnfs/psi.ch/cms/trivcat/store/user/koschwei/tth/ttH_AH_noME_v3/QCD_Pt_1400to1800_TuneCP5_13TeV_pythia8/ttH_AH_noME_v3/181020_155552/0000/tree_27.root = 53572
root://t3dcachedb.psi.ch//pnfs/psi.ch/cms/trivcat/store/user/koschwei/tth/ttH_AH_noME_v3/QCD_Pt_1400to1800_TuneCP5_13TeV_pythia8/ttH_AH_noME_v3/181020_155552/0000/tree_73.root = 56494
root://t3dcachedb.psi.ch//pnfs/psi.ch/cms/trivcat/store/user/koschwei/tth/ttH_AH_noME_v3/QCD_Pt_1400to1800_TuneCP5_13TeV_pythia8/ttH_AH_noME_v3/181020_155552/0000/tree_28.root = 57468
root://t3dcachedb.psi.ch//pnfs/psi.ch/cms/trivcat/store/user/koschwei/tth/ttH_AH_noME_v3/QCD_Pt_1400to1800_TuneCP5_13TeV_pythia8/ttH_AH_noME_v3/181020_155552/0000/tree_74.root = 56494
root://t3dcachedb.psi.ch//pnfs/psi.ch/cms/trivcat/store/user/koschwei/tth/ttH_AH_noME_v3/QCD_Pt_1400to1800_TuneCP5_13TeV_pythia8/ttH_AH_noME_v3/181020_155552/0000/tree_29.root = 58442
root://t3dcachedb.psi.ch//pnfs/psi.ch/cms/trivcat/store/user/koschwei/tth/ttH_AH_noME_v3/QCD_Pt_1400to1800_TuneCP5_13TeV_pythia8/ttH_AH_noME_v3/181020_155552/0000/tree_75.root = 57468
root://t3dcachedb.psi.ch//pnfs/psi.ch/cms/trivcat/store/user/koschwei/tth/ttH_AH_noME_v3/QCD_Pt_1400to1800_TuneCP5_13TeV_pythia8/ttH_AH_noME_v3/181020_155552/0000/tree_76.root = 54988
root://t3dcachedb.psi.ch//pnfs/psi.ch/cms/trivcat/store/user/koschwei/tth/ttH_AH_noME_v3/QCD_Pt_1400to1800_TuneCP5_13TeV_pythia8/ttH_AH_noME_v3/181020_155552/0000/tree_77.root = 54546
root://t3dcachedb.psi.ch//pnfs/psi.ch/cms/trivcat/store/user/koschwei/tth/ttH_AH_noME_v3/QCD_Pt_1400to1800_TuneCP5_13TeV_pythia8/ttH_AH_noME_v3/181020_155552/0000/tree_78.root = 57468
root://t3dcachedb.psi.ch//pnfs/psi.ch/cms/trivcat/store/user/koschwei/tth/ttH_AH_noME_v3/QCD_Pt_1400to1800_TuneCP5_13TeV_pythia8/ttH_AH_noME_v3/181020_155552/0000/tree_79.root = 55520
